<svg xmlns="http://www.w3.org/2000/svg" xmlns:xlink="http://www.w3.org/1999/xlink" width="359.904" height="249.924" viewBox="0 0 359.904 249.924">
  <defs>
    <linearGradient id="linear-gradient" x1="1.15" y1="0.675" x2="-0.274" y2="-0.013" gradientUnits="objectBoundingBox">
      <stop offset="0" stop-color="#838383"/>
      <stop offset="1" stop-color="#646464"/>
    </linearGradient>
    <linearGradient id="linear-gradient-2" x1="0.499" y1="1.011" x2="0.499" y2="-0.167" gradientUnits="objectBoundingBox">
      <stop offset="0" stop-color="#2e2e2e"/>
      <stop offset="1" stop-color="#1e1e1e"/>
    </linearGradient>
    <linearGradient id="linear-gradient-3" x1="0.854" y1="0.701" x2="-0.16" y2="-0.056" xlink:href="#linear-gradient-2"/>
    <linearGradient id="linear-gradient-4" x1="0.699" y1="0.221" x2="-0.423" y2="1.783" gradientUnits="objectBoundingBox">
      <stop offset="0.09" stop-color="#eee"/>
      <stop offset="0.818" stop-color="#d7d7d7"/>
    </linearGradient>
    <linearGradient id="linear-gradient-5" x1="1.065" y1="0.168" x2="0.218" y2="0.661" gradientUnits="objectBoundingBox">
      <stop offset="0.14" stop-color="#797979"/>
      <stop offset="1" stop-color="#5d5d5d"/>
    </linearGradient>
    <linearGradient id="linear-gradient-6" x1="0.475" y1="1.745" x2="0.554" y2="-3.474" xlink:href="#linear-gradient-2"/>
    <linearGradient id="linear-gradient-7" x1="-2.922" y1="-0.554" x2="3.47" y2="1.421" xlink:href="#linear-gradient-2"/>
    <linearGradient id="linear-gradient-8" x1="0.538" y1="0.382" x2="0.365" y2="1.922" xlink:href="#linear-gradient-2"/>
    <linearGradient id="linear-gradient-9" x1="0.573" y1="0.305" x2="-0.39" y2="-0.883" xlink:href="#linear-gradient-2"/>
    <linearGradient id="linear-gradient-10" x1="-0.068" y1="-1.643" x2="0.705" y2="1.291" xlink:href="#linear-gradient-2"/>
    <linearGradient id="linear-gradient-11" x1="0.74" y1="0.302" x2="-1.22" y2="1.851" xlink:href="#linear-gradient-4"/>
    <linearGradient id="linear-gradient-12" x1="0.829" y1="0.157" x2="-0.676" y2="1.733" xlink:href="#linear-gradient-4"/>
    <linearGradient id="linear-gradient-13" x1="0.759" y1="0.139" x2="-0.434" y2="1.785" xlink:href="#linear-gradient-4"/>
    <linearGradient id="linear-gradient-14" x1="0.7" y1="0.209" x2="-0.329" y2="1.941" xlink:href="#linear-gradient-5"/>
    <linearGradient id="linear-gradient-15" x1="0.336" y1="0.933" x2="-0.937" y2="4.132" gradientUnits="objectBoundingBox">
      <stop offset="0" stop-color="#bfbfbf"/>
      <stop offset="0.696" stop-color="#a8a8a8"/>
      <stop offset="1" stop-color="#a2a2a2"/>
    </linearGradient>
    <linearGradient id="linear-gradient-16" x1="1.368" y1="0.491" x2="0.223" y2="0.491" gradientUnits="objectBoundingBox">
      <stop offset="0" stop-color="#bfbfbf"/>
      <stop offset="0.696" stop-color="#a8a8a8"/>
      <stop offset="0.844" stop-color="#a5a5a5"/>
      <stop offset="1" stop-color="#a2a2a2"/>
    </linearGradient>
    <linearGradient id="linear-gradient-17" x1="1.044" y1="0.495" x2="-0.101" y2="0.495" xlink:href="#linear-gradient-16"/>
    <linearGradient id="linear-gradient-18" x1="0.513" y1="0.474" x2="0.367" y2="-1.546" gradientUnits="objectBoundingBox">
      <stop offset="0" stop-color="#eee"/>
      <stop offset="1" stop-color="#e2e2e2"/>
    </linearGradient>
    <linearGradient id="linear-gradient-19" x1="0.532" y1="0.755" x2="0.391" y2="-1.265" xlink:href="#linear-gradient-18"/>
    <linearGradient id="linear-gradient-20" x1="0.487" y1="0.87" x2="0.34" y2="-1.15" xlink:href="#linear-gradient-18"/>
    <linearGradient id="linear-gradient-21" x1="0.579" y1="0.426" x2="1.008" y2="0.911" xlink:href="#linear-gradient-18"/>
    <linearGradient id="linear-gradient-22" x1="1.314" y1="0.423" x2="-0.834" y2="0.181" xlink:href="#linear-gradient-18"/>
    <linearGradient id="linear-gradient-23" x1="0.987" y1="0.504" x2="-1.62" y2="0.504" gradientUnits="objectBoundingBox">
      <stop offset="0" stop-color="#d1d1d1"/>
      <stop offset="1" stop-color="#b9b9b9"/>
    </linearGradient>
    <linearGradient id="linear-gradient-24" x1="0.515" y1="0.479" x2="-1.328" y2="-0.983" gradientUnits="objectBoundingBox">
      <stop offset="0" stop-color="#7f7f7f"/>
      <stop offset="0.465" stop-color="#747474"/>
      <stop offset="1" stop-color="#686868"/>
    </linearGradient>
    <linearGradient id="linear-gradient-25" x1="0.984" y1="0.498" x2="-1.626" y2="0.498" gradientUnits="objectBoundingBox">
      <stop offset="0" stop-color="#343434"/>
      <stop offset="1" stop-color="#1d1d1d"/>
    </linearGradient>
    <linearGradient id="linear-gradient-26" x1="0.429" y1="1.157" x2="0.429" y2="-1.865" xlink:href="#linear-gradient-23"/>
    <linearGradient id="linear-gradient-27" x1="0.666" y1="0.105" x2="1.32" y2="2.691" xlink:href="#linear-gradient-2"/>
    <linearGradient id="linear-gradient-28" x1="0.987" y1="0.498" x2="-1.611" y2="0.498" gradientUnits="objectBoundingBox">
      <stop offset="0" stop-color="#343434"/>
      <stop offset="0.51" stop-color="#2b2b2b"/>
      <stop offset="1" stop-color="#222"/>
    </linearGradient>
    <linearGradient id="linear-gradient-29" x1="-0.008" y1="0.501" x2="4.314" y2="0.501" xlink:href="#linear-gradient-2"/>
    <linearGradient id="linear-gradient-30" x1="0.088" y1="0.366" x2="2.533" y2="2.433" xlink:href="#linear-gradient"/>
    <linearGradient id="linear-gradient-31" x1="0.669" y1="0.699" x2="-0.341" y2="-0.577" gradientUnits="objectBoundingBox">
      <stop offset="0" stop-color="#d1d1d1"/>
      <stop offset="1" stop-color="#c4c4c4"/>
    </linearGradient>
    <linearGradient id="linear-gradient-32" x1="0.681" y1="0.692" x2="-2.501" y2="-3.643" xlink:href="#linear-gradient-31"/>
    <linearGradient id="linear-gradient-33" x1="0.252" y1="0.701" x2="1.616" y2="-0.548" xlink:href="#linear-gradient-31"/>
    <linearGradient id="linear-gradient-34" x1="0.045" y1="0.42" x2="4.339" y2="1.809" xlink:href="#linear-gradient"/>
    <linearGradient id="linear-gradient-35" x1="0.695" y1="0.235" x2="-0.487" y2="1.88" xlink:href="#linear-gradient-4"/>
    <linearGradient id="linear-gradient-36" x1="1.064" y1="0.169" x2="0.126" y2="0.714" xlink:href="#linear-gradient-5"/>
    <linearGradient id="linear-gradient-37" x1="0.471" y1="1.747" x2="0.559" y2="-4.024" xlink:href="#linear-gradient-2"/>
    <linearGradient id="linear-gradient-38" x1="-2.91" y1="-0.553" x2="4.17" y2="1.631" xlink:href="#linear-gradient-2"/>
    <linearGradient id="linear-gradient-39" x1="0.529" y1="0.382" x2="0.338" y2="2.085" xlink:href="#linear-gradient-2"/>
    <linearGradient id="linear-gradient-40" x1="0.57" y1="0.306" x2="-0.497" y2="-1.007" xlink:href="#linear-gradient-2"/>
    <linearGradient id="linear-gradient-41" x1="-0.071" y1="-1.64" x2="0.785" y2="1.603" xlink:href="#linear-gradient-2"/>
    <linearGradient id="linear-gradient-42" x1="0.734" y1="0.312" x2="-1.33" y2="1.943" xlink:href="#linear-gradient-4"/>
    <linearGradient id="linear-gradient-43" x1="0.807" y1="0.174" x2="-0.779" y2="1.834" xlink:href="#linear-gradient-4"/>
    <linearGradient id="linear-gradient-44" x1="0.752" y1="0.157" x2="-0.504" y2="1.891" xlink:href="#linear-gradient-4"/>
    <linearGradient id="linear-gradient-45" x1="0.701" y1="0.209" x2="-0.443" y2="2.125" xlink:href="#linear-gradient-5"/>
  </defs>
  <g id="Сгруппировать_4" data-name="Сгруппировать 4" transform="translate(-644.799 -98.813)">
    <g id="Group" transform="translate(932.662 164.398)">
      <path id="Path" d="M23.552,13.562c.363-.121.726-.121.968-.363.484-.484.242-1.211,0-1.816-.726-2.059-1.452-4.238-2.177-6.3C21.616,3.148,20.77.848,18.834,0a18.458,18.458,0,0,1-4.959,8.84,11.912,11.912,0,0,1-9.314,3.512,8.451,8.451,0,0,0-3.024,0,1.913,1.913,0,0,0-1.452,2.3A2.365,2.365,0,0,0,1.9,15.742c5.806,1.453,11.854,0,17.66-1.332,1.452-.242,2.661-.605,3.992-.848Z" transform="translate(37.105 158.875)" fill="#1e1e1e"/>
      <path id="Path-2" data-name="Path" d="M.584,16.577c4.959-24.945,23.1-17.68,34.352-4.6,4.838,5.691,4.355,19.859,3.629,26.883-.726,7.266-3.387,14.652-5.08,21.8-2.419,10.777,2.056,22.039,2.54,33.18.242,4.844,2.177,10.051-2.54,11.867-3.145,1.211-6.29,1.453-6.532,0-.363-2.664-.363-5.812-1.21-8.6C22.236,85.479,15.1,75.186,11.47,63.8,8.688,55.085-2.682,25.175.584,16.577Z" transform="translate(21.608 63.224)" fill="#646464"/>
      <path id="Path-3" data-name="Path" d="M9.127,11.9C8.4,9.96,6.95,8.507,5.74,6.933,4.289,5.116,7.433.394,5.619.151A37.735,37.735,0,0,0,.418.03C-.792,1.483.9,5.237,1.99,6.812,4.53,8.144,6.224,10.565,9.127,11.9Z" transform="translate(12.823 6.63)" fill="#b9b9b9"/>
      <path id="Path-4" data-name="Path" d="M19.111,12.715.484,1.816a.976.976,0,0,1,.968-1.7l18.628,10.9a.975.975,0,0,1,.363,1.332,1.018,1.018,0,0,1-.847.484C19.474,12.836,19.353,12.715,19.111,12.715Z" transform="translate(2.233 1.332)" fill="#2e2e2e"/>
      <path id="Path-5" data-name="Path" d="M6.031,17.3c-.121.727.242.848,0,1.332a19.81,19.81,0,0,0,3.629,1.7c.242-3.633,3.024-6.176.363-9.324C8.813,9.554,4.338,7.132,2.644,5.073c-.484-.605-.121-1.453,0-2.059a.965.965,0,0,1,.968,1.211C3.37,6.042,4.1,6.405,5.064,6.284c.363-1.332,1.572-1.816.363-3.512A16.17,16.17,0,0,0,2.886.351C2.04-.255,1.435-.013,1.072.593.346,2.773-.379,7.011.225,7.737c1.452,1.937,2.782,2.3,4.6,3.875,1.693,1.332,1.572,3.633,1.21,5.691Z" transform="translate(13.862 6.794)" fill="#d1d1d1"/>
      <path id="Path-6" data-name="Path" d="M23.552,13.562c.363-.121.726-.121.968-.363.484-.484.242-1.211,0-1.816-.726-2.059-1.452-4.238-2.177-6.3C21.616,3.148,20.77.848,18.834,0a18.458,18.458,0,0,1-4.959,8.84,11.912,11.912,0,0,1-9.314,3.512,8.451,8.451,0,0,0-3.024,0,1.913,1.913,0,0,0-1.452,2.3A2.365,2.365,0,0,0,1.9,15.742c5.806,1.453,11.854,0,17.66-1.332a32.883,32.883,0,0,0,3.992-.848Z" transform="translate(39.403 163.718)" fill="#2e2e2e"/>
      <path id="Path-7" data-name="Path" d="M10.778,43.594c-2.3.727-4.838-.727-6.411-2.543A19.658,19.658,0,0,1,.013,28.215a28.919,28.919,0,0,1,2.056-11.5C4.247,11.02,8.238,5.934,8.964,0a14.11,14.11,0,0,0,5.927.484,23,23,0,0,0-.484,9.93c.847,4.965,3.145,9.687,3.387,14.773.121,4.48-1.331,8.719-2.9,12.836-.847,2.422-1.935,4.844-4.113,5.57Z" transform="translate(10.808 21.312)" fill="#1e1e1e"/>
      <path id="Path-8" data-name="Path" d="M36.607,104.99c1.693,1.09,7.983,1.453,9.556.121,4.959-19.133-.363-28.094-1.21-31.121-1.693-6.418-3.266-9.082-2.177-13.441,1.21-4.359,3.145-8.477,4.355-12.836,1.572-6.055,1.452-12.352.968-18.527A127.836,127.836,0,0,0,43.985,5.814C43.259,4.361,41.324,4,39.631,3.756,27.293,2.06,25.116-.6,12.657.123c-.847,0-6.895,1.211-12.58,1.7-.6,0,2.54,12.109,2.661,12.715,4.6,22.644,9.193,31.242,12.943,40.2C16.769,57.4,18.463,62,21.366,65.271c1.935,2.18,5.685,7.266,7.62,9.445,7.378,7.871,9.677,19.98,7.62,30.273Z" transform="translate(18.728 65.752)" fill="url(#linear-gradient)"/>
      <path id="Path-9" data-name="Path" d="M43.227,3.464c-2.9-3.875-2.54-2.18-7.258-3.148-7.378-1.453-15,2.3-20.563,7.387a48.059,48.059,0,0,0-14.394,44.8,78.646,78.646,0,0,0,60,2.059,26.355,26.355,0,0,0-.121-10.656A94.834,94.834,0,0,0,43.227,3.464Z" transform="translate(10.535 24.63)" fill="url(#linear-gradient-2)"/>
      <path id="Path-10" data-name="Path" d="M9.556,0,28.183,7.145,18.628,32.09,0,24.945Z" transform="translate(1.991 28.82)" fill="#bfbfbf"/>
      <path id="Path-11" data-name="Path" d="M.9,5.057A12.76,12.76,0,0,0,4.166,9.78c1.572,1.211,3.871,1.453,5.2,0a3.588,3.588,0,0,0,.726-3.754A7.807,7.807,0,0,0,7.915,2.635,7.1,7.1,0,0,0,4.408.214a3.719,3.719,0,0,0-3.871.848c-.847,1.09-.726,3.027.6,3.633C1.867,3.362.295,6.389.9,5.057Z" transform="translate(54.676 0.997)" fill="#797979"/>
      <path id="Path-12" data-name="Path" d="M0,0C2.419.242,4.959.605,7.378.848A6.886,6.886,0,0,0,11.249.484a19.769,19.769,0,0,0-.121,7.992A13.957,13.957,0,0,1,2.177,10.9c-.6-.121-1.331-.242-1.572-.727a1.537,1.537,0,0,1-.121-.727C.242,6.176.121,3.027,0,0Z" transform="translate(43.722 15.258)" fill="#b9b9b9"/>
      <path id="Path-13" data-name="Path" d="M11.429,15.675a8.315,8.315,0,0,1-8.951-.969A6.868,6.868,0,0,1,.543,12.042,11.348,11.348,0,0,1,.059,10.1,9.276,9.276,0,0,1,3.325,1.991,9.051,9.051,0,0,1,12.034.538a3.892,3.892,0,0,1,2.177,1.453,5.966,5.966,0,0,1,.726,2.059,15.074,15.074,0,0,0,.484,1.937L15.784,7.8A8.679,8.679,0,0,1,11.429,15.675Z" transform="translate(42.695 4.306)" fill="#d1d1d1"/>
      <path id="Shape" d="M0,3.875A3.9,3.9,0,0,1,3.871,0,3.824,3.824,0,0,1,7.742,3.875,3.824,3.824,0,0,1,3.871,7.75,3.824,3.824,0,0,1,0,3.875Z" transform="translate(48.198 7.992)" fill="#2e2e2e"/>
      <path id="Shape-2" data-name="Shape" d="M0,3.875A3.9,3.9,0,0,1,3.871,0,3.9,3.9,0,0,1,7.742,3.875,3.9,3.9,0,0,1,3.871,7.75,3.9,3.9,0,0,1,0,3.875Z" transform="translate(40.819 4.48)" fill="#2e2e2e"/>
      <path id="Path-14" data-name="Path" d="M6.774,14.773A6.624,6.624,0,0,1,3.266,11.02a17.8,17.8,0,0,1-.6-3.512c0-.605-.121-1.332-.121-1.937A8.586,8.586,0,0,0,1.452,2.18C.968,1.211.6.605.121.363A.375.375,0,0,1,0,.121.374.374,0,0,1,.242,0,5.051,5.051,0,0,1,1.814,1.937,16.929,16.929,0,0,1,2.9,5.449a10.428,10.428,0,0,1,.121,1.937,11.133,11.133,0,0,0,.6,3.391,6.17,6.17,0,0,0,3.266,3.512,6.724,6.724,0,0,0,4.838.363c.121,0,.242,0,.242.121s0,.242-.121.242a6.138,6.138,0,0,1-2.056.363A6.761,6.761,0,0,1,6.774,14.773Z" transform="translate(50.98 4.48)" fill="#797979"/>
      <path id="Path-15" data-name="Path" d="M12.338,8.6c-.121,2.3-.242,4.6.726,6.66a4.85,4.85,0,0,1-4.6-3.027c-.726-1.7-.6-4.48-1.21-6.176C6.169,2.906,3.266,1.574,0,1.09A13.214,13.214,0,0,1,5.2,0a8.969,8.969,0,0,1,5.564,2.059C12.338,3.875,12.459,6.3,12.338,8.6Z" transform="translate(48.682 3.512)" fill="#797979"/>
      <path id="Path-16" data-name="Path" d="M10.119,6.95A8.762,8.762,0,0,1,10.6,7.8a38.785,38.785,0,0,1,.847,4.965c-3.024,1.09-7.258-1.453-9.314,1.211-1.21-1.574-.6-3.512-1.089-5.207C.926,8.282.321,8.04.079,7.676-.647,6.1,3.829,5.254,5.28,4.528a10.1,10.1,0,0,0,.484-1.453c.363-1.816.726-4,2.177-2.664.6.605-1.452,4.6,1.331,6.3Z" transform="translate(2.517 32.89)" fill="#d1d1d1"/>
      <path id="Path-17" data-name="Path" d="M30.727,33.046c-4.717,1.09-9.8,2.3-14.394.727-5.2-1.816-8.709-6.66-13.668-8.961A16.467,16.467,0,0,1,.488,23.358c-.484-.727-.847-4,.121-6.66,6.169-1.816,14.273-2.3,21.047,1.332-1.089-2.422.726-5.086,2.54-7.145,3.871-4.48,8.467-8.84,14.273-10.414s12.943.848,15,6.418c1.21,3.391.484,7.266-.847,10.535a22.162,22.162,0,0,1-3.871,7.023c-4.355,5.086-11.491,6.9-18.023,8.6Z" transform="translate(11.06 22.899)" fill="url(#linear-gradient-3)"/>
      <path id="Path-18" data-name="Path" d="M1.572,1.743c0-.121-.121-.242-.121-.363C1.21.774.968.532.363.653.242.653,0,.653,0,.411,0,.29,0,.048.242.048a1.433,1.433,0,0,1,1.814,1.09.375.375,0,0,1,.121.242c.121.121,0,.363-.121.484H1.935A.529.529,0,0,1,1.572,1.743Z" transform="translate(48.077 7.46)" fill="#2e2e2e"/>
      <path id="Path-19" data-name="Path" d="M4.169,1.588A25.585,25.585,0,0,0,1.629.256,3.575,3.575,0,0,0,.419.013C-.307-.108.056.619.419.982c.726.727,1.089,1.09,1.935,1.816a11.154,11.154,0,0,0,.968.605l.242-.242c.242-.363.484-.848.726-1.211C4.411,1.709,4.29,1.709,4.169,1.588Z" transform="translate(0 0.108)" fill="#797979"/>
      <path id="Shape-3" data-name="Shape" d="M4.113,26.156c0-.121,0-.242.121-.242s.242,0,.242.122,0,.242-.122.242S4.113,26.277,4.113,26.156Zm4.838-.484c-.122-.121-.122-.121,0-.242s.121-.121.241,0,.122.122,0,.242a.261.261,0,0,1-.166.091C8.982,25.763,8.951,25.732,8.951,25.672Zm0-.848c0-.121,0-.242.121-.242s.242,0,.242.122c.121.121,0,.242-.122.242S8.951,24.945,8.951,24.824Zm-2.9-3.148c0-.121,0-.242.121-.242s.242,0,.242.122c.122.121.122.242,0,.242S6.048,21.8,6.048,21.676Zm3.145-2.3c0-.122.122-.122.242-.122a.261.261,0,0,1,.242.242c0,.122-.242.122-.363.122S9.193,19.5,9.193,19.375Zm-4.838-.242c.122,0,.122-.122.242-.122s.122.122.122.242a.424.424,0,0,1-.242.122C4.354,19.375,4.234,19.254,4.354,19.133Zm5.927-.242c0-.122,0-.243.121-.243s.242,0,.242.122c.121.122.121.242,0,.242a.176.176,0,0,1-.128.05C10.4,19.062,10.282,18.976,10.282,18.891ZM6.653,16.953c0-.122,0-.242.121-.242s.242,0,.242.121c.122.122,0,.242-.121.242S6.653,17.074,6.653,16.953Zm3.992-.364c-.121,0-.121-.121-.121-.242s.121-.122.241-.122.122.122.122.243c0,.085,0,.171-.086.171A.38.38,0,0,1,10.644,16.59Zm-5.081-.726c0-.122.122-.122.242-.122s.122.122.122.242a.424.424,0,0,1-.242.122C5.564,16.106,5.443,15.984,5.564,15.863Zm5.323-.122c0-.121,0-.242.121-.242s.242,0,.242.122c.121.121,0,.121-.121.242C11.007,15.863,10.886,15.863,10.886,15.742ZM0,12.836c0-.121,0-.242.121-.242s.242,0,.242.122,0,.242-.121.242S0,12.957,0,12.836Zm4.959-.848c0-.121,0-.242.122-.242.121-.121.242,0,.242.122-.122,0-.122.121-.122.242C5.081,12.109,4.959,12.109,4.959,11.988Zm8.225,0c-.121,0,0-.121,0-.121,0-.122.122,0,.122,0,.121,0,0,.121,0,.121,0,.061-.03.091-.061.091S13.184,12.049,13.184,11.988ZM9.677,11.02c0-.122,0-.242.121-.242s.242,0,.242.121,0,.242-.121.242A.421.421,0,0,1,9.677,11.02ZM9.435,9.808c0-.121.121-.121.242-.121s.121.121.121.242-.121.122-.242.122A.425.425,0,0,1,9.435,9.808ZM12.459,8.6a.119.119,0,0,1,.121-.122.424.424,0,0,1,.122.242c0,.122,0,.122-.122.122S12.459,8.718,12.459,8.6ZM8.1,8.114a.119.119,0,0,1,.121-.122.424.424,0,0,1,.122.242.119.119,0,0,1-.122.122A.425.425,0,0,1,8.1,8.114ZM3.871,7.871a.424.424,0,0,1-.122-.242.119.119,0,0,1,.122-.122.425.425,0,0,1,.121.242c0,.086-.06.171-.1.171C3.881,7.921,3.871,7.907,3.871,7.871Zm7.136-.606c0-.122.122-.122.242-.122s.121.122.121.242a.372.372,0,0,1-.241.122C11.007,7.508,11.007,7.386,11.007,7.266Zm1.814-.848.122-.121.121.121a.118.118,0,0,1-.121.122ZM12.1,4.964c0-.121.121-.121.242-.121s.121.121.121.242-.121.122-.242.122S11.975,5.086,12.1,4.964ZM6.532,4.844c0-.122.121-.122.241-.122s.122.122.122.242c-.122.122-.122.122-.242.122S6.532,4.964,6.532,4.844ZM7.258,4c0-.121.121-.121.242-.121s.121.121.121.242-.121.121-.242.121S7.137,4.118,7.258,4ZM2.54,3.148c-.121,0-.121-.121-.121-.242s.121-.121.242-.121a.421.421,0,0,1,.121.242.162.162,0,0,1-.139.171A.148.148,0,0,1,2.54,3.148Zm9.677-.968c0-.122.122-.122.242-.122s.121.122.121.242c-.121.122-.121.122-.241.122A.375.375,0,0,1,12.217,2.18Zm-.363-1.09a.121.121,0,1,1,.121.121A.118.118,0,0,1,11.854,1.09ZM8.467.242A.118.118,0,0,1,8.347.122C8.347,0,8.467,0,8.588,0s.122.122.122.242Z" transform="translate(50.859 85.25)" fill="#fff"/>
      <path id="Path-20" data-name="Path" d="M.419,1.09a3.208,3.208,0,0,0,.726.605L1.871.363c-.121,0-.121,0-.242-.121A3.575,3.575,0,0,0,.419,0C-.307,0,.056.848.419,1.09Z" transform="translate(0)" fill="#2e2e2e"/>
    </g>
    <g id="Group-2" data-name="Group" transform="translate(644.799 196.23)">
      <g id="Group-3" data-name="Group" transform="translate(1.747 40.111)">
        <ellipse id="Oval" cx="4.866" cy="5.011" rx="4.866" ry="5.011" transform="translate(40.403 96.833)" fill="url(#linear-gradient-4)"/>
        <path id="Path-21" data-name="Path" d="M0,0H51.778V9.646H0Z" transform="translate(8.838 44.972)" fill="url(#linear-gradient-5)"/>
        <path id="Path-22" data-name="Path" d="M0,0H18.84a3.042,3.042,0,0,1-2.994,3.006H3.119A3.154,3.154,0,0,1,0,0Z" transform="translate(25.307 54.617)" fill="url(#linear-gradient-6)"/>
        <path id="Path-23" data-name="Path" d="M0,0H4.616V8.518H0Z" transform="translate(32.418 57.498)" fill="url(#linear-gradient-7)"/>
        <path id="Path-24" data-name="Path" d="M3.119,0h1A3.042,3.042,0,0,1,7.112,3.006v24.8H0V3.006A3.148,3.148,0,0,1,3.119,0Z" transform="translate(31.046 65.14)" fill="url(#linear-gradient-8)"/>
        <path id="Path-25" data-name="Path" d="M.125,0H17.467a3.9,3.9,0,0,1,3.868,3.883V5.136H20.087V4.384a3.1,3.1,0,0,0-3.119-3.132H0V0Z" transform="translate(34.664 92.824)" fill="url(#linear-gradient-9)"/>
        <path id="Path-26" data-name="Path" d="M0,0H7.361a3.9,3.9,0,0,1,3.868,3.883V5.136H9.981V4.384A3.1,3.1,0,0,0,6.862,1.253H0Z" transform="translate(34.789 92.824)" fill="#2e2e2e"/>
        <path id="Path-27" data-name="Path" d="M21.21,0H3.868A3.9,3.9,0,0,0,0,3.883V5.136H1.248V4.384A3.1,3.1,0,0,1,4.367,1.253H21.335V0Z" transform="translate(13.579 92.824)" fill="url(#linear-gradient-10)"/>
        <path id="Path-28" data-name="Path" d="M11.1,0H3.868A3.9,3.9,0,0,0,0,3.883V5.136H1.248V4.384A3.1,3.1,0,0,1,4.367,1.253h6.862V0Z" transform="translate(23.685 92.824)" fill="#2e2e2e"/>
        <ellipse id="Oval-2" data-name="Oval" cx="4.866" cy="5.011" rx="4.866" ry="5.011" transform="translate(19.443 96.833)" fill="url(#linear-gradient-11)"/>
        <ellipse id="Oval-3" data-name="Oval" cx="4.866" cy="5.011" rx="4.866" ry="5.011" transform="translate(50.51 96.833)" fill="url(#linear-gradient-12)"/>
        <ellipse id="Oval-4" data-name="Oval" cx="4.866" cy="5.011" rx="4.866" ry="5.011" transform="translate(9.337 96.833)" fill="url(#linear-gradient-13)"/>
        <path id="Path-29" data-name="Path" d="M43.772,54.617H8.838L.1,7.641A6.425,6.425,0,0,1,5.219.125,3.832,3.832,0,0,1,6.467,0H28.176a6.426,6.426,0,0,1,6.363,5.261Z" transform="translate(0 0)" fill="url(#linear-gradient-14)"/>
      </g>
      <g id="Group-4" data-name="Group" transform="translate(69.407 35.931)">
        <path id="Path-30" data-name="Path" d="M0,20.425H34.32L45.332,0H11.012Z" transform="translate(19.673)" fill="url(#linear-gradient-15)"/>
        <path id="Path-31" data-name="Path" d="M0,0H25.125V2.655H0Z" transform="translate(0 20.323)" fill="url(#linear-gradient-16)"/>
        <path id="Path-32" data-name="Path" d="M0,0H28.867V2.655H0Z" transform="translate(25.125 20.323)" fill="url(#linear-gradient-17)"/>
        <g id="Group-5" data-name="Group" transform="translate(40.307 0.204)">
          <path id="Shape-4" data-name="Shape" d="M2.78,7.149l.106-.1.107.1-.107.1A.1.1,0,0,1,2.78,7.149ZM2.031,4.391c0-.1,0-.1.107-.1a.1.1,0,0,1,.107.1.1.1,0,0,1-.107.1A.1.1,0,0,0,2.031,4.391Zm.535-.2a.1.1,0,0,1,.107-.1l.107.1a.1.1,0,0,1-.107.1A.1.1,0,0,1,2.566,4.187ZM0,2.553a.1.1,0,0,1,.107-.1.1.1,0,0,1,.107.1l-.107.1A.1.1,0,0,1,0,2.553ZM2.993,1.94a.1.1,0,0,1,.107-.1c.107,0,.107,0,.107.1a.1.1,0,0,1-.107.1A.1.1,0,0,1,2.993,1.94ZM.855,1.634H.749c-.107-.1-.107-.1,0-.2.106,0,.213-.1.213,0v.2Zm1.5-.409c0-.1,0-.2.107-.1l.107.1-.107.1A.1.1,0,0,1,2.352,1.226ZM5.666.613c-.107,0-.107-.1,0-.1h.107v.1ZM4.17.2s0-.2.107-.2S4.49,0,4.49.1s0,.2-.106.2S4.17.306,4.17.2Z" transform="translate(17.962)" fill="#fff" opacity="0.51"/>
          <path id="Shape-5" data-name="Shape" d="M2.459,6.23a.1.1,0,0,1,.107-.1c.107,0,.107,0,.107.1a.1.1,0,0,1-.107.1Zm7.27-.409c0-.1,0-.1.107-.1l.107.1a.1.1,0,0,1-.107.1ZM5.773,5V4.9c0-.1.107,0,.107,0,.107,0,0,.1,0,.1,0,.034-.012.046-.028.046C5.821,5.05,5.773,5,5.773,5Zm0-.1Zm-1.5-.409c0-.1,0-.1.107-.1s.106,0,.106.1a.1.1,0,0,1-.106.1A.1.1,0,0,1,4.277,4.494ZM1.924,3.983c-.106,0,0-.1,0-.1h.107v.1Zm5.239-.2v-.1c0-.1,0,0,.107,0s0,.1,0,.1c0,.034-.012.046-.028.046C7.211,3.824,7.163,3.778,7.163,3.778Zm-4.918-.1a.107.107,0,0,1,.213,0,.1.1,0,0,1-.107.1A.1.1,0,0,1,2.246,3.677ZM9.3,3.371a.1.1,0,0,1,.107-.1l.107.1-.107.1Zm-2.886,0c.054.051.054.076.04.076S6.415,3.421,6.415,3.371Zm0,0c.213-.1.213,0,.213,0a.177.177,0,0,1-.11.045A.147.147,0,0,1,6.415,3.371Zm.007-.007-.007.007Zm0,0h0Zm.015-.014-.015.014Zm.012-.012-.012.012Zm0,0,0,0Zm0,0,0,0Zm0,0h0Zm0,0h0Zm0,0,0,0Zm0,0h0Zm0,0h0Zm0,0h0Zm0,0Zm5.084-.057v-.1c0-.1.107,0,.107,0,.106,0,0,.1,0,.1,0,.034-.012.046-.028.046C11.595,3.313,11.547,3.268,11.547,3.268Zm2.459-.2v-.1c0-.1.107,0,.107,0,.107,0,0,.1,0,.1,0,.034-.012.046-.028.046C14.053,3.109,14.006,3.064,14.006,3.064ZM4.7,2.655v-.1c0-.1.107,0,.107,0,.107,0,0,0,0,.1,0,.034-.012.046-.028.046C4.752,2.7,4.7,2.655,4.7,2.655ZM0,2.246a.1.1,0,0,1,.107-.1c.107,0,.107,0,.107.1a.1.1,0,0,1-.107.1A.1.1,0,0,1,0,2.246Zm4.811-.2c0-.1,0-.1.107-.1s.106,0,.106.1a.107.107,0,0,1-.213,0Zm-2.245-.2v-.1h.107v.1Zm3.422-.306v-.1c0-.1,0,0,.106,0s0,.1,0,.1c0,.034-.012.046-.028.046C6.035,1.577,5.988,1.532,5.988,1.532Zm-5.346,0s-.107-.1,0-.1c.107-.1.107-.1.107,0h0v.1Zm11.76-.1a.1.1,0,0,1,.107-.1h.107s.107.1,0,.1Zm-10.371-.2c0-.1,0-.2.107-.1l.107.1-.107.1C2.031,1.327,2.031,1.327,2.031,1.226Zm8.447,0v-.1c0-.1,0,0,.107,0s0,0,0,.1c0,.034-.012.045-.028.045C10.525,1.271,10.478,1.226,10.478,1.226Zm-4.17,0a.153.153,0,0,1,.214,0,.179.179,0,0,1-.111.045A.147.147,0,0,1,6.308,1.226Zm0,0ZM8.874.919a.1.1,0,0,1,.107-.1l.107.1a.1.1,0,0,1-.107.1Zm3.742,0v-.1c0-.1.107,0,.107,0,.106,0,0,.1,0,.1,0,.034-.012.046-.028.046C12.664.964,12.616.919,12.616.919Zm-3.208,0c-.107,0-.107-.1,0-.1h.107v.1Zm-4.6-.2v-.1h.107v.1ZM3.635.409c-.107-.1,0-.2,0-.1,0-.1.107,0,.107,0,.107,0,0,0,0,.1,0,.034-.012.045-.028.045C3.683.454,3.635.409,3.635.409ZM.107.1C0,.1,0,0,.107.1,0,0,0,0,.107,0s.107,0,0,.1Z" transform="translate(0 0.102)" fill="#fff" opacity="0.51"/>
        </g>
      </g>
      <g id="Group-6" data-name="Group" transform="translate(180.329 104.031)">
        <path id="Path-33" data-name="Path" d="M0,0V42.192H9.239V12.93H55.433V42.192h9.239V0Z" fill="#797979"/>
      </g>
      <g id="Group-7" data-name="Group" transform="translate(147.496 58.846)">
        <path id="Path-34" data-name="Path" d="M0,0H-4.017V84.728H0Z" transform="translate(-138.845 4.164)" fill="url(#linear-gradient-18)"/>
        <path id="Path-35" data-name="Path" d="M0,0H-4.178V84.728H0Z" transform="translate(0 4.164)" fill="url(#linear-gradient-19)"/>
        <path id="Path-36" data-name="Path" d="M0,0H-4.017V84.728H0Z" transform="translate(-48.692 4.164)" fill="url(#linear-gradient-20)"/>
        <path id="Path-37" data-name="Path" d="M0,0H-143.023V4.645H0Z" transform="translate(0 0)" fill="url(#linear-gradient-21)"/>
        <path id="Path-38" data-name="Path" d="M0,0H-52.87V4.645H0Z" transform="translate(0 0)" fill="url(#linear-gradient-22)"/>
      </g>
      <g id="Group-8" data-name="Group" transform="translate(109.575)">
        <path id="L_hand_1_-i5" d="M-26.116,3.461s6.448,1.129,9.673,0S-8.222-.893-6.61.236,0,4.912,0,4.912-1.451,6.525-4.353,4.59c-3.063-1.935-3.547-.645-5.159.484s-4.836,4.676-7.9,3.547c-2.9-.967-4.514-.645-7.254,1.129s-6.61,4.193-6.61,4.193l2.257-9.03Z" transform="translate(-20.474 48.007)" fill="url(#linear-gradient-23)"/>
        <path id="R_trousers-i5" d="M-10.962,64.661H0S-2.257,27.413-3.224,17.093-4.836,3.064-19.184,1.612C-35.466,0-45.3,0-45.3,0l16.282,13.868A13.285,13.285,0,0,1-24.665,27.09l-.161.806a12.921,12.921,0,0,0,.806,8.546l5.8,12.739C-18.378,48.859-19.184,59.5-10.962,64.661Z" transform="translate(-19.668 67.593)" fill="url(#linear-gradient-24)"/>
        <path id="L_leg-i5" d="M-63,1.451c.484,2.1.322,11.933,11.446,14.029,12.736,2.419,20.474,1.935,24.343,2.9,3.063.806,3.869,1.935,3.547,4.031s-3.385,4.676-4.353,8.708.806,6.611-3.063,11.61c-3.869,4.837-6.126,9.675-2.579,20.318h11.607S-1.1,22.736-.131,14.351C1,5.966-5.451,4.031-8.353,3.225-9.481,2.9-13.189,1.935-20.927,0c-1.612,1.129-5.32,3.225-8.705,2.257C-34.146.967-35.275-.806-40.434.484c-3.063.806-8.705,1.774-13.058.161A61.366,61.366,0,0,1-63,1.451Z" transform="translate(-26.63 69.044)" fill="#838383"/>
        <path id="R_sleeve-i5" d="M-24.5,0c.161.484.161.967.322,1.612,2.1,11.771,6.932,14.835,13.7,15.319,3.708.323,7.254.806,9.834.484L0,14.674C-19.184,13.222-22.892,3.547-24.5,0Z" transform="translate(-46.751 36.794)" fill="url(#linear-gradient-25)"/>
        <path id="L_hand-i5" d="M-30.146,4.678s9.189-.323,12.574-1.613C-14.186,1.937-9.028-.966-7.416.324-5.8,1.453,0,6.452,0,6.452s-1.451,1.612-4.353-.322S-7.416,3.71-9.189,4.839c-1.612,1.129-6.448,4.676-9.35,3.548-3.063-.967-4.514-.645-7.254,1.129s-6.61,4.193-6.61,4.193l2.257-9.03" transform="translate(-13.864 49.532)" fill="#d1d1d1"/>
        <path id="neck-i5" d="M-6.771,4.515a20.33,20.33,0,0,1,5,4.031l.161.161A20.258,20.258,0,0,1,0,2.58,11.932,11.932,0,0,1-6.126,0,8.369,8.369,0,0,1-6.771,4.515Z" transform="translate(-74.157 18.251)" fill="url(#linear-gradient-26)"/>
        <path id="face-i5" d="M-16.064,6.773a30.157,30.157,0,0,1,1.29,4.031C-7.2,17.254-2.039,10-2.039,10-.911,10.32.379,9.352-.1,8.385A17.736,17.736,0,0,1-2.039,2.58C-2.2,2.1-2.2,1.774-2.361,1.29V1.129c0-.322-.161-.484-.161-.806V0s-4.03,4.031-8.867,3.386C-15.9,3.064-16.225,5.483-16.064,6.773Z" transform="translate(-65.669 7.447)" fill="#d1d1d1"/>
        <path id="texture-i5" d="M-11.446,10.481c-.161,0-.161.161,0,0-.161.161,0,.161,0,.161S-11.285,10.642-11.446,10.481ZM-8.06,9.353l-.161-.162v.162Zm-.161-.162C-8.06,9.191-8.06,9.03-8.222,9.191Zm-1.451-.483h0c-.161,0-.161.161,0,.161Zm2.9-.645A.158.158,0,0,0-6.932,7.9c0,.114.081.228.128.228C-6.785,8.129-6.771,8.109-6.771,8.062ZM-6.932,7.9v0Zm0,0Zm2.256-.322h0c-.161.161-.161.161,0,.161C-4.675,7.74-4.514,7.74-4.675,7.579Zm2.1-.161c0,.161.161,0,0,0h0c-.081.081-.081.121-.06.121S-2.579,7.5-2.579,7.418ZM0,7.256a.158.158,0,0,0-.161-.161c0,.189.055.268.1.268S0,7.323,0,7.256Zm-.161-.161v0Zm0,0Zm-8.867-.806V6.127h0c-.114.114-.147.228-.1.228C-9.108,6.355-9.075,6.336-9.028,6.288Zm-.121-.161Zm-4.07-.483h0l-.02.021c-.02-.021-.06-.021-.141-.021l.093.093c-.023.068.068.068.068.068C-13.058,5.805-13.058,5.805-13.219,5.644Zm-.161,0v0Zm0,0ZM-5.159,5h0c-.161.161,0,.161,0,.161S-5,5.16-5.159,5Zm3.708,0h0c0,.161,0,.161.161.161A.158.158,0,0,0-1.451,5ZM-4.675,5h0V5Zm-4.514-.161h0v0Zm0,0Zm-1.129-.484h0a.158.158,0,0,0,.161.162A.158.158,0,0,0-10.318,4.353Zm6.61-.483h0v0Zm-7.093,0v0Zm.161,0H-10.8c.054.054.09.072.113.072C-10.64,3.942-10.64,3.87-10.64,3.87Zm-.161,0Zm0,0Zm2.257-.161c.161.161.161,0,0,0h0c-.162.161-.162.161,0,.161Zm4.836.161Zm-8.222-.322.161.161C-11.768,3.548-11.768,3.548-11.93,3.548Zm0,0v0Zm.025-.025-.025.025Zm0,0,0,0Zm0,0,0,0Zm.008-.008-.008.008Zm0,0,0,0Zm.009-.009-.009.009Zm.005-.005-.005.005Zm.01-.01-.01.01Zm0,0Zm2.835-.095a.158.158,0,0,0-.161-.161h0c0,.114,0,.228.057.228C-9.108,3.453-9.075,3.433-9.028,3.386Zm2.418-.161c.161.161.161,0,0,0s-.161.161,0,0v0ZM-2.9,2.9a.158.158,0,0,0,.161.161A.158.158,0,0,0-2.9,2.9Zm0,0Zm-9.189-.161s.161,0,0-.161c-.161,0-.161.161,0,0-.081.161-.081.2-.06.2S-12.091,2.741-12.091,2.741Zm.644-.645h0a.158.158,0,0,0,.161.161A.158.158,0,0,0-11.446,2.1Zm0,0Zm2.9-.644h0c-.162,0,0,.161,0,0,0,.081.04.121.06.121S-8.463,1.532-8.544,1.452Zm-4.353,0,.121.122Zm-1.129-.161h0c-.161.161-.161.161,0,.161C-14.026,1.451-13.865,1.451-14.026,1.29Zm1.129.161Zm0,0Zm0,0Zm7.255-.161h0v0Zm-.07.07,0,0Zm0,0,0,0Zm.006-.006-.006.006Zm-8.644-.062s.161,0,0-.161h0c-.114.114-.147.228-.1.228C-14.428,1.356-14.395,1.337-14.348,1.29Zm8.647.059,0,0Zm.007-.007-.007.007Zm.017-.017-.017.017Zm.035-.035-.035.035ZM-4.03.806A.158.158,0,0,0-4.191.645h0c0,.114,0,.228.057.228C-4.111.873-4.077.854-4.03.806ZM-7.738.483c0,.081.04.121.06.121S-7.658.564-7.738.483Zm0,0Zm0,0Zm0,0C-7.577.322-7.738.322-7.738.483ZM-5.965,0c-.161,0-.161.161,0,0-.161.161,0,.161,0,.161S-5.8.161-5.965,0Z" transform="translate(-72.061 70.334)" fill="#fff" opacity="0.71"/>
        <path id="sweater-i5" d="M-29.5,48.214s6.126,3.064,19.668-1.29A103.725,103.725,0,0,0,0,43.054L-4.353,5.966a11.1,11.1,0,0,0-1.773-2.1h0c-.161-.161-.161-.322-.322-.322h0c-.161-.161-.161-.322-.322-.322l-.806-.806C-7.738,2.257-7.9,2.257-7.9,2.1a4.274,4.274,0,0,0-.967-.806c-.161,0-.161-.161-.322-.161a14.868,14.868,0,0,0-1.29-.806A.563.563,0,0,1-10.8.161V0h-.161A34.716,34.716,0,0,0-21.28,10.8c-4.514,7.256-3.385,9.836-5.8,14.19C-29.663,28.864-37.4,37.894-29.5,48.214Z" transform="translate(-69.804 22.927)" fill="url(#linear-gradient-27)"/>
        <path id="L_sleeve-i5" d="M-43.2,38.861c.967,4.676,3.708,6.934,6.932,7.9,4.353,1.451,9.673.484,12.736-.323,5.159-1.29,6.287.484,10.8,1.774s9.189-.806,9.189-.806L0,30.96s-6.448-.161-13.38-.645S-24.988,26.767-27.083,15A21.734,21.734,0,0,0-30.791,5.8a11.1,11.1,0,0,0-1.773-2.1h0c-.161-.161-.161-.322-.322-.322h0c-.161-.161-.161-.322-.322-.322l-.806-.806c-.161-.161-.322-.161-.322-.322a4.274,4.274,0,0,0-.967-.806c-.161,0-.161-.161-.322-.161a14.868,14.868,0,0,0-1.29-.806A.563.563,0,0,1-37.24,0a8.643,8.643,0,0,1-.806,1.774C-41.27,7.256-40.3,9.191-40.3,9.191l-2.418-.645C-44.333,16.931-44.655,31.121-43.2,38.861Z" transform="translate(-43.365 22.927)" fill="#2e2e2e"/>
        <path id="R_shoe-i5" d="M-30.63,0h10.962S-14.025,5.321-7.9,7.9,0,14.029,0,14.029H-35.789L-30.63,0" transform="translate(0 132.254)" fill="url(#linear-gradient-28)"/>
        <path id="L_shoe-i5" d="M-30.63,0h11.607A37.852,37.852,0,0,0-7.9,7.9c6.126,2.58,7.9,6.128,7.9,6.128H-35.789L-30.63,0" transform="translate(-29.663 132.254)" fill="#343434"/>
        <path id="eye-i5" d="M0,.651A1.5,1.5,0,0,1-2.741.328c0-.161.161-.161.161,0a1.373,1.373,0,0,0,1.773.806A1.259,1.259,0,0,0-.161.489c0-.161.161,0,.161.161Z" transform="translate(-66.419 11.15)" fill="#2b2b2b"/>
        <path id="hair-i5" d="M-33.018,21.314c1.128-1.935,3.063-3.225,4.836-4.676a19.434,19.434,0,0,0,4.675-5.644,35.119,35.119,0,0,0,.967-3.548c2.1-7.9,10.317-8.224,16.282-6.772C-.453,2.126,1,6-.615,10.188a13.824,13.824,0,0,0-.484-2.1V7.769s-4.03,4.031-8.867,3.386c-2.257-.161-3.547.161-4.191.806a4.229,4.229,0,0,0-.322,2.419,25.6,25.6,0,0,0,1.128,3.225,7.007,7.007,0,0,1,.806,4.031c-.645,3.709-5.159,7.256-2.418,10.965.161.323-.161.484-.322.161-3.224-4.515,3.385-8.707,2.257-13.384a8.1,8.1,0,0,0-.806-2.1c.161.323.161.806.322,1.129A8.442,8.442,0,0,1-14.962,24.7c-3.224,5.483-2.257,7.417-2.257,7.417L-33.663,27.6s-.806-3.709,4.03-8.062c3.224-2.9,4.353-3.709,5.32-6.289l-1.451,1.935c-1.612,1.774-3.547,2.9-5.159,4.515a10.44,10.44,0,0,0-3.063,7.9.242.242,0,1,1-.484,0A10.7,10.7,0,0,1-33.018,21.314Z" transform="translate(-66.771)" fill="#797979"/>
      </g>
      <g id="Group-9" data-name="Group" transform="translate(168.137 28.204)">
        <path id="Path-39" data-name="Path" d="M0,2.285c0,.623.415,2.077.415,2.908,0,.415,0,1.246.207,1.454.415.415,2.073.415,2.695.415A8.3,8.3,0,0,0,6.426,6.44C7.877,5.816,6.84,5.4,5.8,5.193c.415-.208,2.073-.415,2.073-1.246S6.218,3.531,5.8,3.324C6.426,2.7,7.255,2.285,7.255,1.246S6.011,0,5.182,0A8.672,8.672,0,0,0,2.073.831C1.036,1.039.829,1.87,0,2.285Z" transform="translate(36.067 46.61)" fill="#b9b9b9"/>
        <path id="Path-40" data-name="Path" d="M5.182,4.809C4.146,6.887,3.524,16.027,0,14.988c.622-2.285,1.451-4.57,2.073-6.647.622-2.7.415-4.57,2.487-6.44C8.706-1.838,13.888,1.278,19.07.239c0,1.454.622,2.908.207,4.362-2.073,0-5.6-1.454-7.048-.208-2.9,2.7-2.073,1.454-3.938,3.531C6.633,9.587,4.56,12.288,4.975,8.964c.207-1.87,2.28-3.531,2.9-5.193C6.426,3.563,5.182,5.225,5.182,4.809Z" transform="translate(32.958 44.709)" fill="#d1d1d1"/>
        <path id="Path-41" data-name="Path" d="M.829,8.125C2.9,9.371,5.182,9.994,7.255,11.241a32.976,32.976,0,0,0,4.56,2.7c2.073,1.039,4.56,2.493,7.048,2.7,7.255.831-.622-8.1-2.073-10.179A39.928,39.928,0,0,1,14.1,2.931a9.03,9.03,0,0,0-1.244-1.454C12.437,1.27,11.608.023,11.4.023,10.779-.184,9.328,1.062,8.706,1.27,7.255,2.1,5.8,2.724,4.353,3.555S1.451,5.009,0,5.84C.622,7.086-.622,7.086.829,8.125Z" transform="translate(41.457 73.384)" fill="#838383"/>
        <path id="Path-42" data-name="Path" d="M38.091,0C29.177.415,22.752-.208,16.533.831S-1.5,2.493.158,12.256c2.073,12.879,28.4,7.686,36.9,7.686,3.109,0,9.328.415,13.888.415,1.451-5.609,1.036-13.918,0-19.734C46.382.415,37.261.415,38.091,0Z" transform="translate(7.097 61.567)" fill="#1e1e1e"/>
        <path id="Path-43" data-name="Path" d="M53.453.831c0,7.271,1.036,17.242-4.146,22.85-5.389,5.609-13.681,2.493-20.521,2.493s-14.3.623-20.936-.415C.182,24.72-3.549,13.71,4.535,9.14c3.317-1.87,10.157-2.285,13.888-2.7,4.56-.415,9.742-.208,14.3-1.246A14.711,14.711,0,0,0,32.311,0C37.493,2.077,49.722.623,53.453.831Z" transform="translate(26.972 56.581)" fill="url(#linear-gradient-29)"/>
        <path id="Path-44" data-name="Path" d="M8.291.013A19.722,19.722,0,0,1,21.557,4.168c3.938,3.116,7.877,6.024,10.364,10.179,5.6,9.348,5.389,19.527,4.56,29.5C30.885,44.26,0,43.429,0,43.429V6.453S1.451,2.714,3.109,1.467C3.938.636,5.6.221,8.291.013Z" transform="translate(44.98 18.761)" fill="url(#linear-gradient-30)"/>
        <path id="Path-45" data-name="Path" d="M.028,8.517C3.137,9.763,4.173,10.8,7.7,12.879c1.866,1.039,3.524.831,4.768-1.246.829-1.246,2.073-3.324,1.866-4.986-.415-1.87-2.073-2.493-3.731-3.324C9.355,2.7,6.868.208,5.832,0,3.966,0-.387,6.647.028,8.517Z" transform="translate(39.356 14.412)" fill="#b9b9b9"/>
        <path id="Path-46" data-name="Path" d="M.371,7.125C-1.7,13.772,5.345,18.758,10.942,18.966c3.731,0,6.218-2.493,7.877-6.232C23.586,2.555,8.247-4.508,2.029,3.386A7.2,7.2,0,0,0,.371,6.71C.371,6.917.578,7.54.371,7.125Z" transform="translate(27.405 5.417)" fill="url(#linear-gradient-31)"/>
        <path id="Path-47" data-name="Path" d="M4.23,1.842A11,11,0,0,1,14.387.8c9.742,4.57,4.975,14.957,4.975,14.957L.085,9.528C.085,9.736-.952,4.958,4.23,1.842Z" transform="translate(27.484 2.806)" fill="#2e2e2e"/>
        <path id="Path-48" data-name="Path" d="M0,2.507C.415,1.053,2.695-.609,4.353.222,6.426,1.261,6.218,3.754,5.8,5.416a27.061,27.061,0,0,0-5.6-2.493A.726.726,0,0,0,0,2.507Z" transform="translate(36.896 13.982)" fill="url(#linear-gradient-32)"/>
        <ellipse id="Oval-5" data-name="Oval" cx="4.353" cy="4.362" rx="4.353" ry="4.362" transform="translate(38.555 14.412)" fill="#bfbfbf"/>
        <path id="Path-49" data-name="Path" d="M0,0H21.972V3.116H0Z" transform="translate(26.947 60.112)" fill="#aeaeae"/>
        <path id="Path-50" data-name="Path" d="M0,0H27.361L33.58,22.643H6.426Z" transform="translate(0 40.586)" fill="#bfbfbf"/>
        <ellipse id="Oval-6" data-name="Oval" cx="4.768" cy="4.986" rx="4.768" ry="4.986" transform="translate(11.401 47.441)" fill="#aeaeae"/>
        <path id="Path-51" data-name="Path" d="M22.248,5.609a46.9,46.9,0,0,1-2.28-4.57C19.554.208,19.761,0,18.932,0c-.415,0-1.244.623-1.658.831,0-.208-.415,0-.415-.208-1.866.623-3.731,1.246-5.6,2.077A14.373,14.373,0,0,1,8.568,3.739c-.207,0-.622-.208-.829-.208a12.107,12.107,0,0,0-2.695.415C3.386,4.57,1.52,4.57.069,5.816-.553,7.478,3.178,7.271,5.044,7.063,4.422,8.309,3.8,9.763,3.178,11.01c-.415.623-1.451,2.077-.207,2.7.829.415,1.036-.208,1.451-.415a3.507,3.507,0,0,1,2.073,0c1.451.208,2.28-.208,3.524-.208.622,0,1.036.623,1.658.415a4.9,4.9,0,0,0,.415-1.662l.622-2.493L15.2,8.725c2.28-.831,4.353-2.493,7.048-3.116Z" transform="translate(39.107 53.05)" fill="url(#linear-gradient-33)"/>
        <path id="Shape-6" data-name="Shape" d="M1.037,4.57A3.341,3.341,0,0,1,0,2.285C0,1.454,0,.831.622.416A2.219,2.219,0,0,1,1.866,0,3.54,3.54,0,0,1,4.56,1.454,3.336,3.336,0,0,1,5.6,3.74c0,.831,0,1.454-.621,1.869a2.945,2.945,0,0,1-1.244.416A3.541,3.541,0,0,1,1.037,4.57Z" transform="translate(27.361 16.697)" fill="#2e2e2e"/>
        <path id="Path-52" data-name="Path" d="M5.6,8.938C4.975,5.614,5.182.213,9.742.005c3.938-.208,7.669,5.609,9.535,8.517A61.947,61.947,0,0,1,28.812,29.5C22.8,35.32,13.681,40.1,6.218,43.629,3.938,40.1,1.244,36.358,0,32.411c6.011-3.324,9.95-4.57,14.924-7.686-2.28-1.662-8.5-10.594-9.328-15.788Z" transform="translate(51.821 22.508)" fill="url(#linear-gradient-34)"/>
        <path id="Path-53" data-name="Path" d="M6.84,15.164h0a.2.2,0,0,1-.207-.208A14.057,14.057,0,0,0,5.6,4.362,8.665,8.665,0,0,0,.207.415.2.2,0,0,1,0,.208.2.2,0,0,1,.207,0,8.84,8.84,0,0,1,5.8,4.155c1.866,2.908,2.28,6.855,1.244,11.01Z" transform="translate(41.249 3.817)" fill="#2e2e2e"/>
        <path id="Path-54" data-name="Path" d="M15.753,16.7l-1.244-.415.622-1.87A24.758,24.758,0,0,0,16.583,8.8,6.132,6.132,0,0,0,12.23,1.74C7.255.078,2.9,4.025,2.9,4.025A6.874,6.874,0,0,0,0,6.1C1.451,1.532,7.462-1.168,12.437.494c3.731,1.039,5.8,4.362,5.389,8.517a17.248,17.248,0,0,1-1.658,5.816A2.122,2.122,0,0,1,15.753,16.7Z" transform="translate(29.641)" fill="#bfbfbf"/>
        <ellipse id="Oval-7" data-name="Oval" cx="2.902" cy="2.908" rx="2.902" ry="2.908" transform="translate(40.006 15.866)" fill="#d0d0d0"/>
        <path id="Shape-7" data-name="Shape" d="M11.4,13.388h0c.208,0,.208,0,.208.207A.2.2,0,0,1,11.4,13.388Zm.013-.013-.013.013Zm.008-.008-.008.008Zm.007-.007-.007.007Zm0,0,0,0Zm.013-.013-.013.013Zm0,0,0,0Zm0,0,0,0Zm0,0,0,0Zm0,0,0,0Zm0,0,0,0Zm.01-.01-.01.01Zm.01-.01-.01.01Zm0,0,0,0Zm0,0h0Zm0,0,0,0Zm0,0Zm4.055-1.779h.207s0,.208-.207,0v0Zm-6.012-.831c.208,0,.208,0,.208.208A.2.2,0,0,1,9.535,10.687Zm3.524-.208h0c.207,0,.207,0,.207.208A.2.2,0,0,1,13.059,10.479Zm-.821.008,0,0,0,0,0,0c.207-.208.414,0,.207,0,0,.1,0,.156-.026.156S12.336,10.585,12.238,10.486Zm.034.034.05.05Zm0,0,0,0Zm-.027-.027.027.027Zm-.01-.01,0,0,0,0,0,0,0,0Zm.829,0Zm-.816-.013-.013.013Zm-7.061-.195h0c.414.208.414.208.207.208A.2.2,0,0,1,5.182,10.271Zm7.064.191,0,0Zm.011-.011-.011.011Zm.006-.006-.006.006Zm0,0h0Zm.008-.008-.008.008Zm0,0,0,0Zm.014-.014-.014.014Zm0,0,0,0Zm.01-.01-.01.01Zm0,0,0,0Zm.011-.011L12.3,10.4Zm0,0,0,0Zm0,0,0,0Zm0,0h0Zm0,0Zm3.847-1.777h.207s0,.092-.061.092C16.284,8.7,16.237,8.679,16.169,8.609Zm-4.975-.416c.207,0,.207,0,.207.208A.2.2,0,0,1,11.193,8.194Zm0,0C11.193,7.986,11.4,7.986,11.193,8.194Zm3.316-.831h0c.415,0,.415.208.415.208C14.717,7.571,14.717,7.571,14.51,7.363Zm-1.659-.208c.208-.208.415,0,.208,0,0,.1,0,.156-.026.156S12.955,7.259,12.851,7.155Zm0,0C12.851,6.947,13.059,6.947,12.851,7.155Zm-1.865-.623h.207c0,.1,0,.156-.026.156S11.09,6.636,10.986,6.532Zm-.415-.416h0a.2.2,0,0,1,.207.208A.2.2,0,0,1,10.571,6.116Zm-4.56,0h0c.415,0,.207.208.207.208A.2.2,0,0,1,6.011,6.116Zm6.84-.415h0c.1.1.1.155.078.155S12.851,5.805,12.851,5.7Zm0,0C12.851,5.494,13.059,5.494,12.851,5.7Zm-9.12-.416h0c.414,0,.414.208.207.208A.2.2,0,0,1,3.731,5.286Zm2.28-.208c.207,0,.207,0,.207.208C6.011,5.286,6.011,5.286,6.011,5.078Zm0,0ZM7.877,3.209h0c.415,0,.415,0,.207.208A.2.2,0,0,1,7.877,3.209Zm-4.56.208h0c.207-.208.207-.208.207,0Zm0,0Zm5.389-.208h0c.1.1.1.156.078.156S8.706,3.312,8.706,3.209Zm-.829,0ZM5.8,2.378h0c.414,0,.414.207.207.207A.2.2,0,0,1,5.8,2.378Zm-5.8,0c.415,0,.415.207.207.207S0,2.585,0,2.378Zm6.633,0c.207-.208.207-.208.207,0Zm0,0ZM0,2.378ZM2.9.3h0A.2.2,0,0,1,3.11.508C2.9.508,2.9.508,2.9.3ZM2.488.093c.207-.208.207,0,.207,0H2.488v0Z" transform="translate(55.552 24.083)" fill="#fff"/>
      </g>
      <g id="Group-10" data-name="Group" transform="translate(0 39.885)">
        <ellipse id="Oval-8" data-name="Oval" cx="5.384" cy="5.532" rx="5.384" ry="5.532" transform="translate(42.128 101.556)" fill="url(#linear-gradient-35)"/>
        <path id="Path-55" data-name="Path" d="M0,0H54.493V10.142H0Z" transform="translate(9.301 47.288)" fill="url(#linear-gradient-36)"/>
        <path id="Path-56" data-name="Path" d="M0,0H19.828a3.2,3.2,0,0,1-3.151,3.161H3.283A3.228,3.228,0,0,1,0,0Z" transform="translate(26.634 57.43)" fill="url(#linear-gradient-37)"/>
        <path id="Path-57" data-name="Path" d="M0,0H4.858V8.957H0Z" transform="translate(33.987 60.46)" fill="url(#linear-gradient-38)"/>
        <path id="Path-58" data-name="Path" d="M3.283,0h1.05A3.2,3.2,0,0,1,7.485,3.161V29.242H0V3.161A3.147,3.147,0,0,1,3.283,0Z" transform="translate(32.674 68.495)" fill="url(#linear-gradient-39)"/>
        <path id="Path-59" data-name="Path" d="M0,0H18.383a4.1,4.1,0,0,1,4.071,4.083V5.4H21.141V4.61a3.256,3.256,0,0,0-3.283-3.293H0Z" transform="translate(36.482 97.605)" fill="url(#linear-gradient-40)"/>
        <path id="Path-60" data-name="Path" d="M0,0H7.747a4.1,4.1,0,0,1,4.071,4.083V5.4H10.5V4.61A3.256,3.256,0,0,0,7.222,1.317H0V0Z" transform="translate(36.482 97.605)" fill="#2e2e2e"/>
        <path id="Path-61" data-name="Path" d="M22.322,0H4.071A4.1,4.1,0,0,0,0,4.083V5.4H1.313V4.61A3.256,3.256,0,0,1,4.6,1.317H22.454V0Z" transform="translate(14.291 97.605)" fill="url(#linear-gradient-41)"/>
        <path id="Path-62" data-name="Path" d="M11.818,0H4.071A4.1,4.1,0,0,0,0,4.083V5.4H1.313V4.61A3.256,3.256,0,0,1,4.6,1.317h7.222Z" transform="translate(24.795 97.605)" fill="#2e2e2e"/>
        <ellipse id="Oval-9" data-name="Oval" cx="5.384" cy="5.532" rx="5.384" ry="5.532" transform="translate(20.068 101.556)" fill="url(#linear-gradient-42)"/>
        <ellipse id="Oval-10" data-name="Oval" cx="5.384" cy="5.532" rx="5.384" ry="5.532" transform="translate(52.895 101.556)" fill="url(#linear-gradient-43)"/>
        <ellipse id="Oval-11" data-name="Oval" cx="5.384" cy="5.532" rx="5.384" ry="5.532" transform="translate(9.432 101.556)" fill="url(#linear-gradient-44)"/>
        <path id="Path-63" data-name="Path" d="M45.936,57.43H9.3L.109,8.035A6.757,6.757,0,0,1,5.493.132,4.036,4.036,0,0,1,6.806,0H29.654a6.762,6.762,0,0,1,6.7,5.532Z" transform="translate(0 0)" fill="url(#linear-gradient-45)"/>
      </g>
    </g>
    <g id="Group-11" data-name="Group" transform="translate(688.339 98.813)">
      <path id="Shape-8" data-name="Shape" d="M1.373,29.012A1.478,1.478,0,0,1,0,27.637V1.375A1.478,1.478,0,0,1,1.373,0H202.567a1.478,1.478,0,0,1,1.373,1.375V27.637a1.5,1.5,0,0,1-1.511,1.375Z" fill="#bfbfbf"/>
      <path id="Path-64" data-name="Path" d="M0,0H191.168V14.575H0Z" transform="translate(6.317 7.287)" fill="#d7d7d7"/>
      <path id="Path-65" data-name="Path" d="M81.576,14.575H0V0H81.576C89.129,0,89.129,14.575,81.576,14.575Z" transform="translate(6.455 7.287)" fill="#bfbfbf"/>
    </g>
  </g>
</svg>
