<?xml version="1.0" encoding="utf-8"?>
<!-- Generator: Adobe Illustrator 26.0.1, SVG Export Plug-In . SVG Version: 6.00 Build 0)  -->
<svg version="1.1" id="Ebene_1" xmlns="http://www.w3.org/2000/svg" xmlns:xlink="http://www.w3.org/1999/xlink" x="0px" y="0px"
	 viewBox="0 0 445 332" style="enable-background:new 0 0 445 332;" xml:space="preserve">
<style type="text/css">
	.st0{fill:none;}
	.st1{fill:#F2F2F2;}
	.st2{fill:#ECECEC;}
	.st3{fill:#EEEEEE;}
	.st4{fill:#D1D1D1;}
	.st5{fill:#5D5D5D;}
	.st6{fill:#797979;}
	.st7{fill:#1E1E1E;}
	.st8{fill:url(#SVGID_1_);}
	.st9{fill:#A8A8A8;}
	.st10{fill:url(#SVGID_00000001658633134041036880000004247818988182373537_);}
	.st11{fill:none;stroke:#000000;stroke-miterlimit:10;}
	.st12{fill:#B9B9B9;}
	.st13{fill:#2E2E2E;}
	.st14{fill:#838383;}
	.st15{fill:url(#SVGID_00000017480963386289568020000018085782397907764912_);}
	.st16{opacity:0.86;fill:#FFFFFF;enable-background:new    ;}
	.st17{fill:url(#SVGID_00000170964436013729675310000011048789309114558907_);}
	.st18{fill:#AEAEAE;}
	.st19{fill:#BFBFBF;}
	.st20{fill:#F4F4F4;}
	.st21{fill:url(#SVGID_00000072978685430037862690000017410785909686242238_);}
	.st22{fill:#D5D5D5;}
	.st23{fill:url(#SVGID_00000018924079614693764120000002177288074841104036_);}
	.st24{fill:url(#SVGID_00000127004134125676234760000015504587038872968379_);}
	.st25{fill:url(#SVGID_00000176745701876362257570000000595437982162538662_);}
	.st26{fill:url(#SVGID_00000020396771265248321400000003431648119824448419_);}
	.st27{fill:#DADADA;}
	.st28{fill:#646464;}
	.st29{fill:url(#SVGID_00000057113411020597233450000015911384512172477619_);}
	.st30{fill:#E6E6E6;}
	.st31{fill:url(#SVGID_00000132061851628888418020000008753569844688937091_);}
	.st32{fill:url(#SVGID_00000118380851702150587920000006747533947672805049_);}
	.st33{fill:#FFFFFF;}
	.st34{fill:#D7D7D7;}
	.st35{fill:url(#SVGID_00000160881992705453280130000012401062756862329018_);}
	.st36{fill:#E1E1E1;}
	.st37{fill:url(#SVGID_00000131339653791014139860000013409756064381190041_);}
	.st38{fill:url(#SVGID_00000119835153381820334590000013044094708481685639_);}
	.st39{fill:#C6C6C6;}
	.st40{fill:#C9C9C9;}
	.st41{fill:url(#SVGID_00000114762481832062184800000008422242013051857804_);}
	.st42{fill:url(#SVGID_00000049935238133676612560000011817641403457114045_);}
	.st43{fill:url(#SVGID_00000098209757257152577870000008795320404462207151_);}
	.st44{fill:url(#SVGID_00000051352093721839963080000000666524479488607142_);}
	.st45{fill:url(#SVGID_00000123436777141415516100000007812187652697509512_);}
	.st46{fill:url(#SVGID_00000168806679536136182610000008837903325302444680_);}
	.st47{fill:url(#SVGID_00000131345285719010229660000000947026471436094134_);}
	.st48{fill:#D8D8D8;}
	.st49{fill:#EFEFEF;}
	.st50{fill:url(#SVGID_00000115500428455550457310000016039478585569678499_);}
	.st51{fill:url(#SVGID_00000028286338424335083520000003531363382339074223_);}
	.st52{fill:#B6B6B6;}
	.st53{fill:#DDDDDD;}
	.st54{fill:url(#SVGID_00000178894284401904357810000008403521054609691793_);}
	.st55{fill:url(#SVGID_00000175303457410817743800000018197391881169439924_);}
	.st56{fill:url(#SVGID_00000136374010614997667850000016080836120344096922_);}
	.st57{fill:url(#SVGID_00000155864621280696075520000006065891835809675139_);}
	.st58{opacity:0.86;fill:#F7F7F7;enable-background:new    ;}
	.st59{fill:url(#SVGID_00000077291560452374171390000000593776659476059289_);}
	.st60{fill:url(#SVGID_00000107577983494822322960000012339740094988772529_);}
	.st61{fill:url(#SVGID_00000169553946965371035490000000138155275971702182_);}
	.st62{fill:url(#SVGID_00000153704565310053142830000000854529546870089382_);}
	.st63{fill:url(#SVGID_00000115516784301731902850000015509006559351823543_);}
	.st64{fill:url(#SVGID_00000053511633790188174210000004324823208476241563_);}
	.st65{fill:#A2A2A2;}
	.st66{fill:#B8B8B8;}
	.st67{fill:url(#SVGID_00000135663204271425377200000011480276347919199121_);}
	.st68{fill:url(#SVGID_00000164494644538785303600000003570417287089852319_);}
	.st69{fill:url(#SVGID_00000124143228192687279270000006973077666422470296_);}
	.st70{fill:url(#SVGID_00000075868938960922441210000016184525502374848692_);}
	.st71{fill:url(#SVGID_00000100371870779409519110000003711756354724279713_);}
	.st72{fill:url(#SVGID_00000161628446901835228170000000742516378316911762_);}
	.st73{fill:url(#SVGID_00000044165964994490569070000009479390003750958225_);}
	.st74{fill:url(#SVGID_00000146457711920219103850000012258906783048134841_);}
	.st75{fill:#8D8D8D;}
	.st76{fill:url(#SVGID_00000044165631351436748450000018146422172868481674_);}
	.st77{fill:none;stroke:#838383;stroke-miterlimit:10;}
</style>
<rect class="st0" width="445" height="332"/>
<g transform="translate(168.0 112.0) rotate(0.0 425.0 318.5)  scale(2.7676568366007963 2.770661435611481)">
	<path class="st34" d="M5.8,34.9h27.8v30.9H5.8L5.8,34.9L5.8,34.9z"/>
	<path class="st14" d="M-11.5,64.8h62.2v2.4h-62.2V64.8z"/>
	
		<linearGradient id="SVGID_1_" gradientUnits="userSpaceOnUse" x1="-705.0018" y1="225.02" x2="-582.9348" y2="225.02" gradientTransform="matrix(7.66 0 0 7.6767 5357.8911 -1712.0436)">
		<stop  offset="0" style="stop-color:#EEEEEE"/>
		<stop  offset="1" style="stop-color:#D7D7D7"/>
	</linearGradient>
	<path class="st8" d="M-42.5-24.1H79.6v79H-42.5V-24.1z"/>
	<path class="st33" d="M-40.3-22.2H77.5v65.1H-40.3V-22.2z"/>
</g>
<g transform="translate(120.0 73.0) rotate(0.0 81.0 62.5)  scale(1.08 1.0869565217391304)">
	<ellipse class="st19" cx="-40.7" cy="-12.4" rx="18.3" ry="18.2"/>
	<g>
		<path class="st14" d="M-35.3-23.6h9.1c-0.5-0.6-1-1.2-1.6-1.8h-7.5C-35.3-25.4-35.3-23.6-35.3-23.6z"/>
		<path class="st14" d="M-35.3-19.2h11.6c-0.2-0.6-0.5-1.2-0.8-1.8h-10.7L-35.3-19.2L-35.3-19.2z"/>
		<path class="st14" d="M-35.3-14.9h12.7c-0.1-0.6-0.2-1.2-0.3-1.8h-12.4V-14.9z"/>
		<path class="st14" d="M-35.3-10.5h12.8c0.1-0.6,0.1-1.2,0.1-1.8h-12.9V-10.5z"/>
		<path class="st14" d="M-35.3-6.1h11.8c0.2-0.6,0.4-1.2,0.6-1.8h-12.4L-35.3-6.1L-35.3-6.1z"/>
		<path class="st14" d="M-35.3-1.8h9.5c0.4-0.6,0.8-1.2,1.2-1.8h-10.6V-1.8z"/>
		<path class="st14" d="M-46.8,2.6h16.5c0.8-0.6,1.6-1.2,2.2-1.8h-18.7L-46.8,2.6z"/>
		<path class="st14" d="M-40.7,5.8c1.7,0,3.3-0.2,4.9-0.7h-9.7C-44,5.5-42.3,5.8-40.7,5.8z"/>
	</g>
	<ellipse class="st65" cx="-42.3" cy="-13.3" rx="17.7" ry="17.6"/>
	<path class="st40" d="M-42.3,1.6c-8.3,0-15-6.7-15-14.9c0-0.1,0.1-0.2,0.2-0.2s0.2,0.1,0.2,0.2c0,8,6.6,14.5,14.6,14.5
		s14.6-6.5,14.6-14.5s-6.6-14.5-14.6-14.5c-0.1,0-0.2-0.1-0.2-0.2s0.1-0.2,0.2-0.2c8.3,0,15,6.7,15,14.9S-34,1.6-42.3,1.6z"/>
	<path class="st19" d="M-52.9-18.2c0.6,1.3-0.3,2.9-0.3,2.9s-1.8-0.4-2.4-1.7c-0.6-1.3,0.3-2.9,0.3-2.9S-53.5-19.5-52.9-18.2z"/>
	<path class="st19" d="M-52.9-12.7c1.2,0.8,1.2,2.7,1.2,2.7s-1.8,0.5-2.9-0.3c-1.2-0.8-1.2-2.7-1.2-2.7S-54.1-13.5-52.9-12.7z"/>
	<path class="st19" d="M-51.6-7.7c1.4,0.2,2.4,1.7,2.4,1.7s-1.3,1.3-2.7,1.2c-1.4-0.2-2.4-1.7-2.4-1.7S-53-7.8-51.6-7.7z"/>
	<path class="st66" d="M-33-17.8c-0.6,1.3,0.3,2.9,0.3,2.9s1.8-0.4,2.4-1.7s-0.3-2.9-0.3-2.9S-32.5-19.1-33-17.8z"/>
	<path class="st19" d="M-52.6-15.8c-0.6,1.3,0.3,2.9,0.3,2.9s1.8-0.4,2.4-1.7c0.6-1.3-0.3-2.9-0.3-2.9S-52-17.1-52.6-15.8z"/>
	<path class="st19" d="M-33-12.3c-1.2,0.8-1.2,2.7-1.2,2.7s1.8,0.5,2.9-0.3c1.2-0.8,1.2-2.7,1.2-2.7S-31.8-13.1-33-12.3z"/>
	<path class="st66" d="M-50.9-11.1c-0.8,1.2-0.2,2.9-0.2,2.9s1.9-0.1,2.7-1.3s0.2-2.9,0.2-2.9S-50.1-12.3-50.9-11.1z"/>
	<path class="st19" d="M-34.3-7.3c-1.4,0.2-2.4,1.7-2.4,1.7s1.3,1.3,2.7,1.2c1.4-0.2,2.4-1.7,2.4-1.7S-32.9-7.4-34.3-7.3z"/>
	<path class="st19" d="M-48.5-5.7c-0.7,1.3,0,2.9,0,2.9s1.8-0.3,2.5-1.6c0.7-1.3,0-2.9,0-2.9S-47.8-6.9-48.5-5.7z"/>
	<path class="st66" d="M-33.2-15.4c0.6,1.3-0.3,2.9-0.3,2.9s-1.8-0.4-2.4-1.7c-0.6-1.3,0.3-2.9,0.3-2.9S-33.8-16.6-33.2-15.4z"/>
	<path class="st66" d="M-35-10.7c0.8,1.2,0.2,2.9,0.2,2.9s-1.9-0.1-2.7-1.3s-0.2-2.9-0.2-2.9S-35.8-11.9-35-10.7z"/>
	<path class="st19" d="M-37.3-5.3c0.7,1.3,0,2.9,0,2.9s-1.8-0.3-2.5-1.6c-0.7-1.3,0-2.9,0-2.9S-38-6.5-37.3-5.3z"/>
	<path class="st66" d="M-38.2-18.5h-8.4l-1.2-5.3l1.4,1.3l1.4-1.3l1.4,1.4l1.4-1.4l1.4,1.4l1.1-1.4l1.2,1.4l1.6-1.4L-38.2-18.5z"/>
	<ellipse class="st19" cx="-62.7" cy="-21.4" rx="18.3" ry="18.2"/>
	<path class="st14" d="M-57.3-32.5h9.1c-0.5-0.6-1-1.2-1.6-1.8h-7.5V-32.5z"/>
	<path class="st14" d="M-57.3-28.1h11.6c-0.2-0.6-0.5-1.2-0.8-1.8h-10.7L-57.3-28.1z"/>
	<path class="st14" d="M-57.3-23.8h12.7c-0.1-0.6-0.2-1.2-0.3-1.8h-12.4V-23.8z"/>
	<path class="st14" d="M-57.3-19.4h12.8c0.1-0.6,0.1-1.2,0.1-1.8h-12.9V-19.4z"/>
	<path class="st14" d="M-57.3-15.1h11.8c0.2-0.6,0.4-1.2,0.6-1.8h-12.3V-15.1z"/>
	<path class="st14" d="M-57.3-10.7h9.5c0.4-0.6,0.8-1.2,1.2-1.8h-10.6V-10.7z"/>
	<path class="st14" d="M-68.8-6.3h16.5c0.8-0.6,1.6-1.2,2.2-1.8h-18.7C-68.8-8.2-68.8-6.3-68.8-6.3z"/>
	<path class="st14" d="M-62.7-3.2c1.7,0,3.3-0.2,4.9-0.7h-9.8C-66-3.4-64.3-3.2-62.7-3.2z"/>
	
		<linearGradient id="SVGID_00000101079208346332948650000017637541955505239995_" gradientUnits="userSpaceOnUse" x1="-530.6422" y1="990.1407" x2="-495.2056" y2="990.1407" gradientTransform="matrix(1.1664 0 0 -1.1815 536.9268 1147.5903)">
		<stop  offset="0" style="stop-color:#BFBFBF"/>
		<stop  offset="1" style="stop-color:#A2A2A2"/>
	</linearGradient>
	
		<ellipse style="fill:url(#SVGID_00000101079208346332948650000017637541955505239995_);" cx="-64.3" cy="-22.3" rx="17.7" ry="17.6"/>
	<path class="st40" d="M-64.3-7.3c-8.3,0-15-6.7-15-14.9c0-0.1,0.1-0.2,0.2-0.2s0.2,0.1,0.2,0.2c0,8,6.6,14.5,14.6,14.5
		s14.6-6.5,14.6-14.5s-6.5-14.6-14.5-14.6c-0.1,0-0.2-0.1-0.2-0.2c0-0.1,0.1-0.2,0.2-0.2c8.3,0,15,6.7,15,14.9
		C-49.3-14-56-7.3-64.3-7.3z"/>
	<path class="st40" d="M-57.4-13.3h-12.1V-15H-59v-2.6h1.6V-13.3z"/>
	<path class="st40" d="M-64.6-17.9h-1.6v-12.8l-6.7,5.6l-1-1.2l9.3-7.8V-17.9z"/>
	<path class="st40" d="M-62.6-30h1.6v9.1h-1.6V-30z"/>
</g>
<g transform="translate(350.0 285.0) rotate(315.11528310300577 257.5 257.5)  scale(1.609878086902157 1.610381488430269)">
	<path class="st19" d="M196.3-87.6c-0.5,0-1-0.2-1.4-0.6L71.7-211.4c-0.8-0.8-0.8-2,0-2.8c0.8-0.8,2-0.8,2.8,0L197.7-91.1
		c0.8,0.8,0.8,2,0,2.8C197.3-87.8,196.8-87.6,196.3-87.6z"/>
</g>
<g transform="translate(400.0 345.0) rotate(270.0 151.0 15.0)  scale(3.0036899634982044 3.083247687564234)">
	<path class="st34" d="M102.3-110h39.9v3.9h-39.9V-110z"/>
</g>
<g transform="translate(203.0 385.0) rotate(270.0 116.0 11.5)  scale(2.3074704355350444 2.3638232271325794)">
	<path class="st19" d="M133.6-85.3h39.9v3.9h-39.9V-85.3z"/>
</g>
<g transform="translate(181.0 407.0) rotate(90.0 96.0 9.5)  scale(1.9096307052703818 1.9527235354573482)">
	<path class="st34" d="M-100.8,96.7h39.9v3.9h-39.9V96.7z"/>
</g>
<g transform="translate(438.0 328.0) rotate(90.0 166.5 16.5)  scale(3.312015754453318 3.3915724563206577)">
	<path class="st19" d="M-32.2,115.1H7.7v3.9h-39.9V115.1z"/>
</g>
<g transform="translate(286.0 374.0) rotate(90.0 127.0 12.5)  scale(2.526282287180609 2.5693730729701953)">
	<path class="st34" d="M-61.7,106.1h39.9v3.9h-39.9V106.1z"/>
</g>
<g transform="translate(354.0 398.0) rotate(90.0 103.5 10.5)  scale(2.05882060411963 2.158273381294964)">
	<path class="st19" d="M-89,138.2H-49v3.9H-89V138.2z"/>
</g>
<g transform="translate(531.0 320.0) rotate(90.0 173.5 17.0)  scale(3.45125966004595 3.4943473792394655)">
	<path class="st34" d="M-28.4,129.1h39.9v3.9h-39.9V129.1z"/>
</g>
<g transform="translate(602.0 339.0) rotate(90.0 156.5 15.5)  scale(3.113095889320987 3.186022610483042)">
	<path class="st19" d="M-38.1,151.5H1.8v3.9h-39.9V151.5z"/>
</g>
<g transform="translate(693.0 313.0) rotate(90.0 180.0 18.0)  scale(3.5805575723819656 3.699897225077081)">
	<path class="st34" d="M-25.2,153.3h39.9v3.9h-39.9V153.3z"/>
</g>
<g transform="translate(769.0 337.0) rotate(90.0 156.5 15.5)  scale(3.113095889320987 3.186022610483042)">
	<path class="st19" d="M-37.7,187.5H2.2v3.9h-39.9V187.5z"/>
</g>
<g transform="translate(60.0 262.0) rotate(0.0 101.0 252.5)  scale(1.2095880813657567 1.2109353456441097)">
	<path class="st7" d="M-33,28.8c1.2,0.3,2.3,0.6,3.5,0.8c5.4,1.3,11,2.5,16.3,1.2c0.6-0.2,1.4-0.4,1.6-1c0.4-0.8-0.4-1.8-1.3-2.1
		c-0.9-0.2-1.8,0-2.7,0c-3.1,0.3-6.3-1.1-8.6-3.3s-3.7-5.1-4.5-8.1c-1.8,0.8-2.6,2.8-3.2,4.7c-0.7,1.9-1.4,3.8-2,5.8
		c-0.2,0.6-0.4,1.2,0,1.6C-33.6,28.6-33.3,28.7-33,28.8L-33,28.8z"/>
	<path class="st28" d="M2.5-56.6C5.5-48.6-5-21-7.6-12.9c-3.4,10.6-10,20-13.2,30.7c-0.8,2.5-0.7,5.4-1.1,7.9c-0.2,1.3-3.1,1.1-6,0
		c-4.3-1.7-2.5-6.6-2.3-11c0.4-10.3,4.6-20.6,2.3-30.6c-1.5-6.6-4-13.4-4.7-20.1c-0.6-6.6-1.2-19.6,3.3-24.8
		C-18.8-72.8-2-79.6,2.5-56.6L2.5-56.6z"/>
	<path class="st12" d="M9.4-117.5c1-1.5,2.6-4.9,1.4-6.2c-1.4,0-3.4-0.1-4.8,0.1c-1.7,0.2,1.2,4.6-0.2,6.2c-1.2,1.4-2.5,2.8-3.1,4.5
		C5.4-114.1,6.9-116.4,9.4-117.5z"/>
	<path class="st13" d="M2.8-117c-0.3,0-0.6-0.2-0.8-0.4c-0.2-0.4-0.1-1,0.3-1.2l17.2-10.1c0.4-0.2,1-0.1,1.2,0.3
		c0.2,0.4,0.1,1-0.3,1.2L3.3-117.1C3.1-117,3-117,2.8-117z"/>
	<path class="st4" d="M4.6-107.8c-0.3-1.9-0.4-4,1.1-5.2c1.7-1.4,2.8-1.7,4.2-3.5c0.6-0.6-0.1-4.6-0.8-6.6c-0.4-0.6-0.9-0.8-1.7-0.2
		c-0.5,0.4-1.9,1.7-2.3,2.2c-1.1,1.6,0,2,0.4,3.2c1,0.1,1.6-0.2,1.4-1.9c-0.1-0.5,0.2-1.1,0.9-1.1c0,0.5,0.4,1.4,0,1.9
		c-1.6,1.9-5.6,4.1-6.8,5.4c-2.4,2.9,0.1,5.2,0.4,8.5c1-0.6,2.3-0.8,3.3-1.6C4.4-107,4.7-107.2,4.6-107.8L4.6-107.8z"/>
	<path class="st13" d="M-35.1,33.3c1.2,0.3,2.3,0.6,3.5,0.8c5.4,1.3,11,2.5,16.3,1.2c0.6-0.2,1.4-0.4,1.6-1c0.4-0.8-0.4-1.8-1.3-2.1
		c-0.9-0.2-1.8,0-2.7,0c-3.1,0.3-6.3-1.1-8.6-3.3s-3.7-5.1-4.5-8.1c-1.8,0.8-2.6,2.8-3.2,4.7c-0.7,1.9-1.4,3.8-2,5.8
		c-0.2,0.6-0.4,1.2,0,1.6C-35.8,33.1-35.4,33.2-35.1,33.3L-35.1,33.3z"/>
	<path class="st7" d="M3.1-70.2c-2.1-0.7-3.1-3-3.8-5C-2.1-79-3.5-83-3.4-87.1c0.2-4.7,2.4-9,3.1-13.6c0.5-3.1,0.3-6.2-0.5-9.2
		c1.8,0.2,3.7,0,5.5-0.5c0.7,5.5,4.4,10.2,6.4,15.4c1.3,3.3,1.9,7,1.9,10.6C13-80.1,11.8-75.7,9-72.5C7.5-70.9,5.2-69.5,3.1-70.2
		L3.1-70.2z"/>
	
		<linearGradient id="SVGID_00000085245739543974927840000007400336058547731134_" gradientUnits="userSpaceOnUse" x1="-613.1909" y1="129.9505" x2="-569.7335" y2="84.1441" gradientTransform="matrix(1.4631 0 0 1.4663 851.5258 -194.0833)">
		<stop  offset="0" style="stop-color:#838383"/>
		<stop  offset="1" style="stop-color:#646464"/>
	</linearGradient>
	<path style="fill:url(#SVGID_00000085245739543974927840000007400336058547731134_);" d="M-28,27.2c-1.9-9.5,0.3-20.6,7-27.9
		c1.8-1.9,5.2-6.6,7-8.7c2.6-3.1,4.2-7.3,5.2-9.7c3.5-8.3,7.7-16.2,12-37.1c0.1-0.6,3-11.7,2.4-11.7C0.3-68.2-5.2-69.3-6-69.4
		C-17.5-70-19.5-67.6-30.9-66c-1.6,0.2-3.3,0.6-4,1.9c-1.9,7-3.2,14.3-3.8,21.5c-0.5,5.7-0.6,11.5,0.9,17.1c1.1,4,2.9,7.8,4,11.8
		c1.1,4-0.4,6.5-2,12.4c-0.7,2.8-5.6,11.1-1.1,28.7C-35.4,28.6-29.5,28.2-28,27.2L-28,27.2z"/>
	
		<linearGradient id="SVGID_00000080194258916821053340000008348620409663773347_" gradientUnits="userSpaceOnUse" x1="-592.2743" y1="96.9706" x2="-592.2743" y2="52.9268" gradientTransform="matrix(1.4631 0 0 1.4663 851.5258 -194.0833)">
		<stop  offset="0" style="stop-color:#2E2E2E"/>
		<stop  offset="1" style="stop-color:#1E1E1E"/>
	</linearGradient>
	<path style="fill:url(#SVGID_00000080194258916821053340000008348620409663773347_);" d="M-26.6-104.1
		c-8.3,10.9-13.9,23.8-16.2,37.4c-0.6,3.2-0.9,6.6-0.1,9.8c17.7,6.7,38.1,6,55.3-1.9c3.1-14.8-2.1-31.1-13.3-41.2
		c-5.1-4.7-12.1-8.2-19-6.8C-24.3-106.1-23.9-107.6-26.6-104.1L-26.6-104.1z"/>
	<path class="st19" d="M21.2-80.5L4-73.9l-8.8-22.9l17.1-6.6L21.2-80.5z"/>
	<path class="st6" d="M-28.6-124.8c1.2-0.6,1.4-2.3,0.6-3.4c-0.8-1-2.4-1.2-3.6-0.8c-1.2,0.4-2.3,1.3-3.2,2.3
		c-0.8,0.9-1.6,1.9-2,3.1c-0.4,1.2-0.2,2.6,0.7,3.5c1.2,1.3,3.5,1,4.8,0c1.4-1.1,2.2-2.7,3-4.3C-27.7-123.2-29.2-126-28.6-124.8z"/>
	<path class="st12" d="M-17.7-107.3c0,0.2,0,0.5-0.1,0.7c-0.2,0.5-0.9,0.6-1.5,0.7c-2.9,0.2-5.9-0.6-8.3-2.2c0.4-2.5,0.4-5-0.2-7.4
		c1.1,0.6,2.4,0.5,3.6,0.4c2.3-0.3,4.5-0.6,6.8-0.8C-17.5-113.2-17.5-110.3-17.7-107.3z"/>
	<path class="st4" d="M-30.8-119c0.1-0.6,0.2-1.1,0.3-1.7c0.1-0.6,0.3-1.2,0.4-1.7c0.2-0.6,0.3-1.3,0.7-1.9c0.5-0.7,1.2-1.1,2-1.4
		c2.7-1,5.8-0.4,8,1.4s3.4,4.7,3.1,7.5c-0.1,0.6-0.2,1.2-0.4,1.8c-0.4,1-1,1.8-1.8,2.5c-2.2,1.9-5.7,2.3-8.3,0.9
		C-29.5-113-31.1-116.1-30.8-119z"/>
	<path class="st13" d="M-25-115.5c-1.9,0-3.5-1.6-3.5-3.5s1.6-3.5,3.5-3.5s3.5,1.6,3.5,3.5S-23-115.5-25-115.5z M-25-122
		c-1.6,0-2.9,1.3-2.9,2.9c0,1.6,1.3,2.9,2.9,2.9c1.6,0,2.9-1.3,2.9-2.9C-22-120.7-23.4-122-25-122z"/>
	<path class="st13" d="M-18.2-118.8c-1.9,0-3.5-1.6-3.5-3.5s1.6-3.5,3.5-3.5s3.5,1.6,3.5,3.5S-16.3-118.8-18.2-118.8z M-18.2-125.3
		c-1.6,0-2.9,1.3-2.9,2.9c0,1.6,1.3,2.9,2.9,2.9s2.9-1.3,2.9-2.9C-15.3-124-16.6-125.3-18.2-125.3z"/>
	<path class="st6" d="M-33.1-111.7c-0.7,0-1.3-0.1-1.9-0.3c-0.1,0-0.2-0.2-0.1-0.2c0-0.1,0.2-0.2,0.2-0.1c1.4,0.5,3,0.4,4.5-0.3
		c1.5-0.7,2.6-1.9,3.1-3.3c0.4-1,0.4-2.1,0.5-3.1c0-0.6,0.1-1.2,0.2-1.8c0.2-1.1,0.5-2.2,1-3.2c0.3-0.7,0.8-1.5,1.4-1.8
		c0.1,0,0.2,0,0.3,0.1c0,0.1,0,0.2-0.1,0.3c-0.4,0.2-0.8,0.8-1.2,1.6c-0.5,1-0.8,2-1,3.1c-0.1,0.6-0.1,1.2-0.2,1.7
		c-0.1,1.1-0.2,2.2-0.5,3.3c-0.5,1.5-1.7,2.7-3.3,3.5C-31.1-111.9-32.1-111.7-33.1-111.7z"/>
	<path class="st6" d="M-31.8-124.7c1.2-1.2,3.5-1.9,5.2-1.9c1.7,0,3.7,0.4,4.8,1c-3,0.4-5.7,1.7-6.7,4.5c-0.6,1.6-0.5,4.1-1.2,5.7
		c-0.6,1.6-2.6,2.9-4.3,2.7c1-1.8,0.8-4.1,0.7-6.1C-33.4-120.9-33.3-123.2-31.8-124.7z"/>
	<path class="st4" d="M12.1-93.6c2.5-1.5,0.6-5.3,1.2-5.8c1.4-1.2,1.7,0.9,2,2.5c0.1,0.4,0.3,1.3,0.4,1.4c1.4,0.8,5.5,1.5,4.8,2.9
		c-0.2,0.4-0.8,0.6-0.9,1c-0.4,1.6,0.2,3.3-1,4.8c-2-2.5-5.8-0.2-8.6-1.1c0.3-1.3,0.4-3.2,0.8-4.6c0.1-0.2,0.5-1,0.4-0.8L12.1-93.6z
		"/>
	
		<linearGradient id="SVGID_00000114068428653801239160000012162932418253048741_" gradientUnits="userSpaceOnUse" x1="-602.3694" y1="73.2695" x2="-567.8252" y2="56.861" gradientTransform="matrix(1.4631 0 0 1.4663 851.5258 -194.0833)">
		<stop  offset="0" style="stop-color:#2E2E2E"/>
		<stop  offset="1" style="stop-color:#1E1E1E"/>
	</linearGradient>
	<path style="fill:url(#SVGID_00000114068428653801239160000012162932418253048741_);" d="M-15.5-78.5c-6.1-1.5-12.6-3.2-16.6-8
		c-1.6-1.9-2.7-4.1-3.5-6.4c-1.2-3.1-1.9-6.6-0.8-9.7c1.9-5.2,8.5-7.3,13.8-5.9c5.3,1.4,9.5,5.4,13.1,9.6c1.6,1.9,3.3,4.3,2.3,6.6
		c6.3-3.3,13.7-2.8,19.4-1.2c0.9,2.4,0.6,5.5,0.2,6.1c-0.1,0.2-1.3,1-2,1.4C5.8-84,2.6-79.5-2.2-77.9C-6.5-76.4-11.1-77.5-15.5-78.5
		L-15.5-78.5z"/>
	<path class="st13" d="M-23-121.4c0,0-0.1,0-0.2,0c-0.2-0.1-0.2-0.3-0.1-0.4c0-0.1,0.1-0.2,0.2-0.3c0.2-0.5,0.6-1.3,1.7-1
		c0.2,0,0.2,0.2,0.2,0.4s-0.2,0.2-0.4,0.2c-0.6-0.2-0.8,0.1-1,0.7c0,0.1-0.1,0.2-0.2,0.3C-22.8-121.5-22.9-121.4-23-121.4z"/>
	<path class="st6" d="M18.9-128.3c0.2,0.4,0.4,0.8,0.7,1.2c0.2,0.3,0.3,0.3,0.3,0.3s0.8-0.4,0.9-0.5c0.8-0.6,1.2-1,1.8-1.6
		c0.3-0.3,0.6-1,0-0.9c-0.4,0-0.7,0.1-1.1,0.2c-0.8,0.3-1.6,0.8-2.3,1.2C19-128.4,18.9-128.3,18.9-128.3z"/>
	<path class="st33" d="M-36.1-40.5c0,0,0-0.1,0-0.1c0,0-0.1,0-0.1,0c0,0,0,0.1,0,0.1C-36.2-40.4-36.1-40.4-36.1-40.5z M-34.9-50.4
		c0,0,0.1-0.1,0.1-0.1s-0.1-0.1-0.1-0.1l0,0c0,0-0.1,0.1-0.1,0.1C-35-50.4-35-50.4-34.9-50.4L-34.9-50.4z M-35.8-45.4
		c0,0,0.1,0,0.1-0.1s0-0.1-0.1-0.1s-0.1,0-0.1,0.1C-35.9-45.5-35.9-45.4-35.8-45.4z M-24.1-39.5c0.1,0,0.2,0,0.2-0.2
		c0-0.1,0-0.2-0.1-0.2l0,0c-0.1,0-0.2,0-0.2,0.2C-24.3-39.7-24.2-39.6-24.1-39.5z M-28.6-40.4c0.1,0,0.2,0,0.2-0.2s0-0.2-0.2-0.2
		c-0.1,0-0.2,0-0.2,0.2C-28.8-40.5-28.7-40.5-28.6-40.4z M-33-41.3c0.1,0,0.2,0,0.2-0.2l0,0c0-0.1,0-0.2-0.1-0.2l0,0
		c-0.1,0-0.2,0-0.2,0.2C-33.2-41.4-33.2-41.3-33-41.3L-33-41.3z M-29.6-31.5c0-0.1,0-0.2-0.1-0.2c-0.1,0-0.2,0-0.2,0.1
		c0,0.1,0,0.2,0,0.2C-29.7-31.4-29.6-31.4-29.6-31.5z M-33.4-34c0-0.1,0-0.2-0.1-0.2c-0.1,0-0.2,0-0.2,0.1c0,0.1,0,0.2,0,0.2
		C-33.6-33.9-33.4-33.9-33.4-34z M-26.2-48.5c0.1,0,0.2-0.1,0.2-0.2s-0.1-0.2-0.2-0.2l0,0c-0.1,0-0.2,0.1-0.2,0.2l0,0
		C-26.4-48.6-26.3-48.5-26.2-48.5z M-30.7-47.6c0.1,0,0.2-0.1,0.2-0.2c0-0.1-0.1-0.2-0.2-0.2c-0.1,0-0.2,0.1-0.2,0.2l0,0
		C-30.9-47.7-30.8-47.6-30.7-47.6L-30.7-47.6z M-35.2-46.7c0.1,0,0.2-0.1,0.2-0.2l0,0c0-0.1-0.1-0.2-0.2-0.2l0,0
		c-0.1,0-0.2,0.1-0.2,0.2C-35.4-46.7-35.3-46.7-35.2-46.7L-35.2-46.7L-35.2-46.7z M-32.2-27.9c0-0.1,0-0.2,0-0.2c-0.1,0-0.2,0-0.2,0
		c0,0.1,0,0.2,0,0.2C-32.3-27.8-32.2-27.8-32.2-27.9z M-27.4-44.2c0.1,0,0.2-0.1,0.2-0.2c0-0.1-0.1-0.2-0.2-0.2l0,0
		c-0.1,0-0.2,0.1-0.2,0.2l0,0C-27.6-44.3-27.5-44.2-27.4-44.2z M-31.5-43.8c0.1,0,0.2-0.1,0.2-0.2c0-0.1-0.1-0.2-0.2-0.2l0,0
		c-0.1,0-0.2,0.1-0.2,0.2l0,0C-31.6-43.8-31.5-43.8-31.5-43.8z M-35.5-43.4c0.1,0,0.2-0.1,0.2-0.2l0,0c0-0.1-0.1-0.2-0.2-0.2l0,0
		c-0.1,0-0.2,0.1-0.2,0.2l0,0C-35.7-43.4-35.6-43.4-35.5-43.4L-35.5-43.4z M-30.3-35.8c0.1,0,0.2,0,0.2-0.1c0-0.1,0-0.2-0.1-0.2
		c-0.1,0-0.2,0-0.2,0.1C-30.5-35.9-30.4-35.8-30.3-35.8z M-34.2-36.9c0.1,0,0.2,0,0.2-0.1l0,0c0-0.1,0-0.2-0.1-0.2
		c-0.1,0-0.2,0-0.2,0.1C-34.4-37-34.3-37-34.2-36.9z M-31.7-51.3c0.1,0,0.1-0.1,0.1-0.2l0,0c0-0.1-0.2-0.1-0.2-0.1l0,0
		c-0.1,0-0.1,0.2-0.1,0.2C-31.9-51.3-31.8-51.2-31.7-51.3L-31.7-51.3z M-35.3-49.3c0.1,0,0.1-0.2,0.1-0.2c0-0.1-0.2-0.1-0.2-0.1
		c-0.1,0-0.1,0.2-0.1,0.2C-35.4-49.3-35.4-49.3-35.3-49.3L-35.3-49.3z M-27.9-27.3c0.1,0,0.2,0,0.2-0.1c0-0.1,0-0.2-0.1-0.2
		c-0.1,0-0.2,0-0.2,0.1C-28-27.4-28-27.3-27.9-27.3z M-32.4-28.5c0.1,0,0.2,0,0.2-0.1s0-0.2-0.1-0.2c-0.1,0-0.2,0-0.2,0.1
		C-32.6-28.7-32.5-28.6-32.4-28.5z M-30-46.9c0.1,0,0.1-0.2,0.1-0.3c0-0.1-0.2-0.1-0.3-0.1c-0.1,0-0.1,0.2-0.1,0.3
		C-30.2-46.9-30.1-46.9-30-46.9z M-34.1-44.6c0.1,0,0.1-0.2,0.1-0.3c0-0.1-0.2-0.1-0.3-0.1c-0.1,0-0.1,0.2-0.1,0.3
		C-34.3-44.6-34.2-44.6-34.1-44.6z M-29.2-36.7c0.1,0,0.2-0.1,0.2-0.2c0-0.1-0.1-0.2-0.2-0.2c-0.1,0-0.2,0.1-0.2,0.2l0,0
		C-29.3-36.8-29.2-36.7-29.2-36.7L-29.2-36.7z M-33.8-36.2c0.1,0,0.2-0.1,0.2-0.2l0,0c0-0.1-0.1-0.2-0.2-0.2c-0.1,0-0.2,0.1-0.2,0.2
		C-34-36.2-33.9-36.2-33.8-36.2z M-28-33.7c0.1,0,0.2-0.1,0.2-0.2c0-0.1-0.1-0.2-0.2-0.2c-0.1,0-0.2,0.1-0.2,0.2
		C-28.2-33.8-28.1-33.7-28-33.7L-28-33.7z M-32.6-33.3c0.1,0,0.2-0.1,0.2-0.2c0-0.1-0.1-0.2-0.2-0.2c-0.1,0-0.2,0.1-0.2,0.2
		C-32.8-33.4-32.8-33.3-32.6-33.3z M-32.8-42.2c0.1,0,0.1-0.2,0.1-0.3c0-0.1-0.2-0.1-0.2-0.1c-0.1,0-0.1,0.2-0.1,0.2l0,0
		C-33-42.2-32.8-42.2-32.8-42.2L-32.8-42.2L-32.8-42.2z"/>
	<path class="st13" d="M22.6-129.9c-0.4,0-0.7,0.1-1.1,0.2c-0.1,0-0.1,0-0.2,0.1l0.6,1.2c0.2-0.2,0.4-0.4,0.6-0.6
		C22.9-129.3,23.2-130,22.6-129.9z"/>
</g>
<g transform="translate(1184.0 175.0) rotate(0.0 -162.5 301.5)  scale(-1.3212026602923719 1.3180990519741977)">
	<path class="st12" d="M654.6-75.7c0,1.9,0.1,3.9,0.2,5.9c0,0.2,0,0.5-0.1,0.7c-0.3,0.5-1.1,0.3-1.4-0.2c-0.3-0.5-0.2-1-0.2-1.6
		c-0.4,0.8-0.3,2.5-1.2,2.5c-0.7,0-0.6-1.2-1-1.8c-0.7,0.8-1.7,1.6-2.8,1.6c-1.1,0-2.2-0.9-2.2-2c0-1.5,1.7-2.2,3.1-2.7
		C651-73.9,652.8-74.7,654.6-75.7L654.6-75.7z"/>
	<path class="st4" d="M653.4-73.4c0.2-0.1,0.3-0.2,0.5-0.2c0.6-0.1,1,0.6,0.8,1.2c-0.1,0.5-0.6,1-1,1.3c-1.4,1.1-2.7,2.2-4.1,3.3
		c-0.5,0.4-1.1,0.8-1.7,1c-0.4,0.1-0.8,0.1-1.2,0.2c-0.6,0.3-1,1-1.2,1.7c-0.8,2.5-1.6,5-2.5,7.6c-1.3-0.9-3-1.2-4.5-0.9
		c2.3-5.1,5.9-14.7,6.4-14.8c4.4-0.8,8.4-2.7,11.8-5.5c0.2-0.2,0.6-0.4,0.8-0.3c0.5,0.2,0.4,0.8,0.2,1.3c-0.9,1.8-2.7,2.9-4.6,3.7
		c-1.9,0.8-3.8,1.4-5.4,2.7c-0.1,0.5,0,1,0.3,1.5C650-71,651.7-72.2,653.4-73.4L653.4-73.4z"/>
	<path class="st4" d="M580.9,27.7c-0.2-0.1-0.3-0.4-0.4-0.7c-0.1-1.4,1.3-2.4,1.5-3.7c0.1-1-0.6-2-1.5-2.6c-0.9-0.6-1.9-0.8-2.9-1
		c2.1-2.9,3.9-6.2,5.1-9.6c0.6,1.2,1.4,2.4,2.1,3.5c0.3,0.4,0.9,1,1.4,0.7c-0.8,1.8-1.6,3.4-2.4,5.2c0.6,1,1,2.1,1,2.8
		c0,0.7-0.6,1.3-0.9,1.9c-0.6,1.1-1,1.6-1.5,2.6C582.1,27.4,581.3,28,580.9,27.7z"/>
	<path class="st34" d="M618.7,88.1c-2.1-0.6-4.1-1.3-6.3-1.6c-3.6-0.5-7.2-0.1-10.8,0.4c0.8,2.3,1.4,4.7,1.6,7.1
		c8.1,0,16.3,0,24.4,0C627.9,92.5,622.1,89.1,618.7,88.1L618.7,88.1z"/>
	
		<linearGradient id="SVGID_00000117645923902103927810000000801676633024371135_" gradientUnits="userSpaceOnUse" x1="1688.6843" y1="243.8279" x2="1718.5088" y2="243.8279" gradientTransform="matrix(1.7456 0 0 1.7374 -2361.5779 -325.8805)">
		<stop  offset="0" style="stop-color:#EEEEEE"/>
		<stop  offset="1" style="stop-color:#D7D7D7"/>
	</linearGradient>
	<path style="fill:url(#SVGID_00000117645923902103927810000000801676633024371135_);" d="M615.8,102.1c0.7-0.6-1.6-2.8-2.9-3.7
		c-1.2-0.8-2.6-1.3-4-1.7c-7.4-2.4-15.5-4.8-22.7-2.1c0.3,2.8,0,7.6,0,7.6S612.3,102.1,615.8,102.1z"/>
	<path class="st7" d="M619.5,7.9c0.6,0.1,1.2,0.2,1.6,0.6c0.4,0.4,0.5,1.1,0.5,1.7c-0.1,5.2-1.8,10.3-2.4,15.5
		c-0.5,5,0.1,10.2,0.2,15.3c0.4,15.5-3.7,31-2.8,46.5c-6.6-0.6-11.6-0.1-16.1,0c3.1-16.9,6.2-34.1,5-51.3
		c-0.7-10.1-2.8-20.5,0.8-29.9C610.7,6.8,615.1,7.4,619.5,7.9L619.5,7.9z"/>
	<path class="st28" d="M633.2-49c0.7-1.7,0.8-3.7,1.3-5.5c0.8-3.2,3.9-8.1,6.3-10.3c0.4-0.3,1.2-1.2,1.2-1.2s1,0.6,1.5,0.7
		c1.7,0.6,2.2,0.8,2.2,0.8c0.3,3.5,0.8,7.6,0.3,11.1c-1.2,8.8-2.1,10.3-7,16.9c-4.3,5.7-9.1,7.8-13.8,13.3c-0.9,1.1-1.9,2.3-3.3,2.4
		c-1.6,0.2-3.1-1.3-3.4-2.9c-0.4-1.6-4-1-3.5-2.5c2.1-5.9,8.3-11.6,12.8-16C629.7-44.3,632.1-46.3,633.2-49L633.2-49z"/>
	
		<linearGradient id="SVGID_00000056385209358237539760000006157008019676646837_" gradientUnits="userSpaceOnUse" x1="1700.6769" y1="177.9812" x2="1729.0753" y2="171.9738" gradientTransform="matrix(1.7456 0 0 1.7374 -2361.5779 -325.8805)">
		<stop  offset="0" style="stop-color:#838383"/>
		<stop  offset="1" style="stop-color:#646464"/>
	</linearGradient>
	<path style="fill:url(#SVGID_00000056385209358237539760000006157008019676646837_);" d="M610.8-33.1c-3.2,0.8-5.1,2.3-6.4,5.3
		s0.3,10.3-0.1,13.6c-1,8.3,0.5,13.5-0.5,21.2c3,2.1,16.1,1.6,18.5,0.9c3.7-5.2,4.1-9.3,6.3-15.3c2.7-7.6,2.8-15.9,4-25
		c0.2-1.7-6-4.3-7.5-5c-2.3-1.2-3.7,0.9-6.2,1.5C616.4-35.3,613.6-35.2,610.8-33.1L610.8-33.1z"/>
	<path class="st12" d="M620.7-42.6c-0.2,4-0.1,6.3-0.2,10.3c-2.7,1.1-5.7-1.4-8.4-0.1c0.5-3.1,0.6-5.8,0.6-8.9
		C615.4-41.2,618.2-41.7,620.7-42.6z"/>
	<path class="st4" d="M610.9-39.5c-1.3-0.7-4.7-2.5-5.2-3.3c-0.9-1.2-0.9-2.9-0.4-4.3c0.5-1.4,1.5-2.6,2.5-3.8
		c0.6-0.8,1.4-1.6,2.3-1.9c1-0.3,2.1,0,3.1,0.2c1.8,0.5,3.7,1,5.5,1.5c0.4,0.1,0.8,0.2,1,0.6c0.2,0.3,0.1,0.7,0.1,1
		c0,1.7,1.8,2.9,2.2,4.7c0.6,2.4-0.8,2.9-3,4.1c-1.2,0.7-2.9,1-4.2,1.4C613.4-39.1,611.6-39.1,610.9-39.5L610.9-39.5z"/>
	<path class="st13" d="M621.3-47.3c1.1,1.2,1.8,2.3,2.9,3.5c0.2,0.2,0.4,0.5,0.4,0.8c0,0.4-0.4,0.6-0.7,0.8
		c-2.3,1.5-3.9,2.7-6.1,4.2c-0.3,0.2-0.9,0.4-1.2,0.4c-0.3,0-1.1-0.5-1.3-0.7c-1.3-1-1.2-1.6-2.4-2.7c-0.8-0.8-2.8-2.2-1.8-2.8
		c0.9,0.5,1.8,1,2.7,1.5c0.8,0.5,1.7,1,2.7,1s2-0.3,2.5-1.2c-1-1.5-0.8-3.6,0.2-5c0.2-0.2,0.4-0.4,0.7-0.5
		C620.6-48.1,621-47.6,621.3-47.3L621.3-47.3z"/>
	<path class="st13" d="M613.8-47.4c-0.3,0-0.6,0-0.9-0.1c-0.7-0.2-1.2-0.6-1.6-1.1c-0.4-0.5-0.5-1.1-0.3-1.7
		c0.2-0.8,1.1-1.4,2.2-1.4c0.3,0,0.6,0,0.9,0.1c1.4,0.4,2.3,1.6,1.9,2.7C615.7-48,614.8-47.4,613.8-47.4L613.8-47.4z M613.1-51.3
		c-0.9,0-1.6,0.4-1.8,1.1c-0.1,0.4,0,0.9,0.3,1.3c0.3,0.4,0.8,0.8,1.4,1c0.3,0.1,0.6,0.1,0.8,0.1c0.9,0,1.6-0.4,1.8-1.1
		c0.3-0.9-0.5-1.9-1.7-2.3C613.6-51.3,613.4-51.3,613.1-51.3L613.1-51.3z"/>
	
		<linearGradient id="SVGID_00000096755067548169327840000007751414689178487700_" gradientUnits="userSpaceOnUse" x1="1693.6823" y1="184.0942" x2="1710.4647" y2="195.4279" gradientTransform="matrix(1.7456 0 0 1.7374 -2361.5779 -325.8805)">
		<stop  offset="0" style="stop-color:#838383"/>
		<stop  offset="1" style="stop-color:#646464"/>
	</linearGradient>
	<path style="fill:url(#SVGID_00000096755067548169327840000007751414689178487700_);" d="M580.4,15.2c1.9,1.7,4.1,2.9,4.1,2.9
		s1.6-1.1,3.1-2.2c3.6-2.6,10.8-9,12.8-13c2.9-5.6,5.7-11.1,8.5-16.7c1.9-3.7,3.3-8.7,3.8-12.8c0.3-2.9-0.6-5.6-3.6-5.5
		c-2,0-3.4,1.9-4.5,3.6C595.5-14.9,584.4,0.9,580.4,15.2L580.4,15.2z"/>
	
		<linearGradient id="SVGID_00000123411825843553109210000014991592482433648524_" gradientUnits="userSpaceOnUse" x1="1701.1398" y1="219.0915" x2="1662.1888" y2="248.7684" gradientTransform="matrix(1.7456 0 0 1.7374 -2361.5779 -325.8805)">
		<stop  offset="0" style="stop-color:#2E2E2E"/>
		<stop  offset="1" style="stop-color:#1E1E1E"/>
	</linearGradient>
	<path style="fill:url(#SVGID_00000123411825843553109210000014991592482433648524_);" d="M592.2,59.9c-1,4.8,0.2,9.9-0.6,14.8
		c-1.3,7.4-7.1,14-5.9,21.4c6.2-1.1,13-0.5,18.6-0.9c-1.1-30.1,17.1-57.5,18.2-87.6C615.9,8.8,611.1,9,603.8,7
		c-6.9,11.2-1.4,26.3-5.8,38.8C596.3,50.5,593.2,54.9,592.2,59.9z"/>
	<path class="st6" d="M581.7,48.7l-16.2-1.4c-0.7,0-1.2-0.6-1.1-1.3l2.1-24.4c0-0.7,0.6-1.2,1.3-1.1L584,22c0.7,0,1.2,0.6,1.1,1.3
		l-2.1,24.4C582.9,48.2,582.3,48.7,581.7,48.7L581.7,48.7z"/>
	<path class="st75" d="M619.1-26.2c-1.4-0.8-1.9-1.2-3.5-2.5c-0.9-0.7-2-1.8-2.8-2.5c-0.7-0.6-1.3-1.3-2-1.9c0.8-0.8,1.4-1.9,1.8-3
		c1.3,1.4,1.8,1.8,3.3,2.7c0.6,0.3,3.6,1.7,4.1,1.3C619.7-30.2,619.2-28.2,619.1-26.2L619.1-26.2z"/>
	<path class="st4" d="M621.5-46.7c-1,0.4-1.4,1.7-0.9,2.7c0.5-0.6,1.2-1.2,1.9-1.6C622.2-46,621.8-46.4,621.5-46.7z"/>
	<path class="st13" d="M617.5-51.1c-0.5,0-1.1-0.1-1.6-0.4c-0.6-0.2-1-0.5-1.4-0.8c-0.4-0.4-0.5-0.7-0.4-1c0.1-0.2,0.3-0.4,0.9-0.4
		c0.5,0,1.1,0.1,1.6,0.4c0.6,0.2,1,0.5,1.4,0.8c0.4,0.4,0.5,0.7,0.4,1C618.4-51.3,618.1-51.1,617.5-51.1L617.5-51.1z M615-53.3
		c-0.4,0-0.5,0.1-0.6,0.2c0,0.1,0,0.3,0.3,0.6c0.3,0.3,0.8,0.6,1.2,0.8c0.5,0.2,1.1,0.4,1.5,0.4c0.4,0,0.5-0.1,0.6-0.2
		s0-0.3-0.3-0.6c-0.3-0.3-0.8-0.6-1.2-0.8C616-53.2,615.4-53.3,615-53.3z"/>
	<path class="st13" d="M611.8-51c0,0-0.1,0-0.2-0.1c-0.1-0.1-0.1-0.2,0-0.3c0.4-0.3,0.8-0.6,1.2-1c0.5-0.4,1-0.8,1.4-1.2
		c0.1-0.1,0.2-0.1,0.3,0c0.1,0.1,0.1,0.2,0,0.3c-0.5,0.4-1,0.8-1.4,1.2c-0.4,0.4-0.9,0.7-1.2,1C611.9-51,611.9-51,611.8-51L611.8-51
		z"/>
	<path class="st75" d="M620-32.1c0,0.1,0.2,0.2,0.2,0.3c1,1.3,1.9,2.5,2.8,3.9c0-2.9-0.6-6.5-2.5-8.7c0,1.2-0.1,2.9-0.4,4.1
		C620.1-32.5,620-32.2,620-32.1L620-32.1z"/>
	<path class="st33" d="M568.2,24.3l14.9,1.3l-1.9,22l-14.9-1.3L568.2,24.3z"/>
	<path class="st13" d="M570.1,46.1l8.1,0.7l-0.2,2.8l-8.1-0.8L570.1,46.1z"/>
	
		<linearGradient id="SVGID_00000125585277172986303780000004494803748602916490_" gradientUnits="userSpaceOnUse" x1="1683.1719" y1="199.7513" x2="1683.4429" y2="206.8654" gradientTransform="matrix(1.7456 0 0 1.7374 -2361.5779 -325.8805)">
		<stop  offset="0" style="stop-color:#D1D1D1"/>
		<stop  offset="1" style="stop-color:#B9B9B9"/>
	</linearGradient>
	<path style="fill:url(#SVGID_00000125585277172986303780000004494803748602916490_);" d="M574.7,23.5c0,0.7-0.3,1.4-0.2,2
		c0.2,0.6,0.1,1,0.7,1.4c0.1,0.1,0.7,0.2,0.8,0.2c0.2,0,0.4-0.3,0.4-0.6c0.2-0.9,0.4-1.9,0.3-2.8c-0.2,1.2-0.2,2.5,0.2,3.6
		c0.2,0.4,0.5,0.8,0.8,0.7c0.2-0.1,0.4-0.3,0.4-0.5c0.9-2.5,0.8-5.2,1.9-7.5c0.3-0.6-0.2-1.5-0.3-2.2c-2,0.7-4.1,1.4-6.1,2.1
		c-0.3,0.1-0.6,0.2-0.8,0.5c-0.1,0.2-0.1,0.3-0.1,0.5c0,1.4,0,2.7,0,4.1c0,0.3,0,0.6,0.2,0.9c0.2,0.3,0.4,0.5,0.7,0.4
		c0.3-0.1,0.5-0.4,0.6-0.7C574.5,24.9,574.7,24.3,574.7,23.5L574.7,23.5z"/>
	<path class="st4" d="M582.5,19.3c0.2,0,0.5,0.4,0.6,0.5c0.3,0.3-1,1.3-1.4,1.5c-1.2,0.6-1.2,0.6-1.6,1.9c-0.4,1.2-0.9,2.8-1.4,4.1
		c-0.5,1.5-0.8,4.6-1.8,4.4c-1.6-0.4-0.6-3.4-0.4-5c0.2-1.8,0.7-4.7,0.8-5.1c0.2-0.8,2.3-1.7,3.1-1.9
		C581.3,19.4,581.7,19.1,582.5,19.3L582.5,19.3z"/>
	<g>
		<path class="st34" d="M569.8,32.4l10.5,0.9l-0.1,0.8l-10.5-0.9L569.8,32.4z"/>
		<path class="st34" d="M569.7,34.3l10.5,0.9l-0.1,0.8l-10.5-0.9L569.7,34.3z"/>
		<path class="st34" d="M569.5,36.1l10.5,0.9l-0.1,0.8L569.5,37L569.5,36.1z"/>
		<path class="st34" d="M569.4,38l10.5,0.9l-0.1,0.8l-10.5-0.9L569.4,38z"/>
		<path class="st34" d="M569.2,39.9l10.5,0.9l-0.1,0.8l-10.5-0.9L569.2,39.9z"/>
		<path class="st34" d="M569.1,41.7l10.5,0.9l-0.1,0.8L569,42.5L569.1,41.7z"/>
	</g>
	<path class="st33" d="M572.5,32.5l1.2,0.1l-0.1,1.1l-1.2-0.1L572.5,32.5z"/>
	<path class="st33" d="M573.5,36.4l3.9,0.4l-0.1,1.1l-3.9-0.4L573.5,36.4z"/>
	<path class="st33" d="M570.7,39.8l2.1,0.2l-0.1,1.1l-2.1-0.2L570.7,39.8z"/>
	<path class="st33" d="M572,41.9l2.1,0.2l-0.1,1.1l-2.1-0.2L572,41.9z"/>
	<path class="st77" d="M612.9,10.4c-0.5,5.7-4.5,11-9.8,13.1"/>
	<path class="st16" d="M610.3-23.7c0,0-0.1,0.1,0,0.2c0,0.1,0.1,0.1,0.2,0c0.1,0,0.1-0.1,0-0.2C610.5-23.7,610.4-23.8,610.3-23.7z
		 M599.6-15.8c-0.1,0-0.2,0-0.2,0.1c0,0.1,0,0.2,0.1,0.2c0.1,0,0.2,0,0.2-0.1C599.7-15.7,599.7-15.8,599.6-15.8z M602.8-14.7
		c-0.1,0-0.2,0-0.2,0.1s0,0.2,0.1,0.2c0.1,0,0.2,0,0.2-0.1C603-14.6,602.9-14.7,602.8-14.7z M604.4-21.3c0,0.1,0,0.2,0,0.2
		c0.1,0,0.2,0,0.2,0c0-0.1,0-0.2,0-0.2C604.5-21.4,604.4-21.4,604.4-21.3z M607-19.1c0,0.1,0,0.2,0,0.2c0.1,0,0.2,0,0.2,0
		c0-0.1,0-0.2,0-0.2C607.1-19.2,607-19.2,607-19.1z M600.4-8.9c-0.1,0-0.1,0.1-0.1,0.2s0.1,0.1,0.2,0.1c0.1,0,0.1-0.1,0.1-0.1
		C600.5-8.9,600.5-8.9,600.4-8.9z M606.6-23.8c0,0,0,0.1,0,0.2c0,0,0.1,0,0.2,0c0,0,0-0.1,0-0.2C606.7-23.8,606.7-23.8,606.6-23.8z
		 M608.7-21.6c0,0,0,0.1,0,0.2c0,0,0.1,0,0.2,0c0,0,0-0.1,0-0.2C608.8-21.7,608.8-21.7,608.7-21.6z M601.6-12.1
		c-0.1,0-0.1,0.1-0.1,0.1c0,0.1,0,0.1,0.1,0.1c0.1,0,0.1,0,0.1-0.1C601.8-12,601.7-12,601.6-12.1z M614-23.3c0,0-0.1,0.1-0.1,0.2
		c0,0,0.1,0.1,0.2,0.1c0,0,0.1-0.1,0.1-0.2C614.1-23.3,614-23.4,614-23.3z M604.5-18.1c-0.1,0-0.2,0-0.2,0c0,0.1,0,0.1,0,0.2
		c0.1,0,0.1,0,0.2,0C604.6-17.9,604.6-18.1,604.5-18.1z M607.3-16.9c-0.1,0-0.1,0-0.2,0c0,0.1,0,0.1,0,0.2c0.1,0,0.1,0,0.2,0
		C607.4-16.8,607.4-16.8,607.3-16.9z M612.5-23.5c0,0,0,0.1,0,0.1c0,0,0.1,0,0.1,0c0,0,0-0.1,0-0.1
		C612.5-23.6,612.5-23.5,612.5-23.5z M609-15.6C609-15.6,609-15.6,609-15.6c-0.1,0.1,0,0.2,0,0.2S609.1-15.5,609-15.6
		C609.1-15.6,609.1-15.6,609-15.6z M616.7-24.9c0,0-0.1,0.1,0,0.1c0,0,0.1,0.1,0.1,0c0,0,0.1-0.1,0-0.1
		C616.7-24.9,616.7-24.9,616.7-24.9z M603.5-24.7c-0.1,0-0.2,0-0.2,0.1c0,0.1,0,0.2,0.1,0.2c0.1,0,0.2,0,0.2-0.1
		C603.6-24.5,603.6-24.6,603.5-24.7z M606.7-23.3c-0.1,0-0.2,0-0.2,0.1c0,0.1,0,0.2,0.1,0.2c0.1,0,0.2,0,0.2-0.1
		C606.8-23.2,606.8-23.2,606.7-23.3z M610-22c-0.1,0-0.2,0-0.2,0.1s0,0.2,0.1,0.2c0.1,0,0.2,0,0.2-0.1C610.1-21.8,610-21.9,610-22z
		 M613.7-24.9c0,0.1-0.1,0.2,0,0.2c0.1,0,0.2,0.1,0.2,0c0-0.1,0.1-0.2,0-0.2C613.8-24.9,613.8-24.9,613.7-24.9L613.7-24.9z
		 M603.6-17.5c-0.1,0-0.2,0.1-0.2,0.2s0.1,0.2,0.2,0.2s0.2,0,0.2-0.1C603.7-17.4,603.7-17.5,603.6-17.5z M607.1-17.5
		c-0.1,0-0.2,0-0.2,0.2c0,0.1,0.1,0.1,0.1,0.2c0.1,0,0.2,0,0.2-0.1C607.2-17.4,607.2-17.5,607.1-17.5L607.1-17.5z M616.2-25.4
		c0,0.1-0.1,0.2,0,0.2c0.1,0,0.2,0.1,0.2,0c0,0,0.1-0.1,0-0.2C616.4-25.5,616.3-25.5,616.2-25.4z M603-19.8c-0.1,0-0.2,0-0.2,0.1
		s0,0.2,0.1,0.2c0.1,0,0.1,0,0.2-0.1C603.1-19.7,603.1-19.9,603-19.8z M606.5-19.7c-0.1,0-0.2,0-0.2,0.1s0,0.1,0.1,0.2
		c0.1,0,0.2,0,0.2-0.1C606.6-19.6,606.6-19.7,606.5-19.7z M610-19.5c-0.1,0-0.2,0-0.2,0.1s0,0.2,0.1,0.2c0.1,0,0.2,0,0.2-0.1
		C610.2-19.5,610.1-19.5,610-19.5z M609.8-25c-0.1,0-0.2,0-0.2,0.1s0,0.2,0.1,0.2c0.1,0,0.2,0,0.2-0.1
		C609.9-24.9,609.8-24.9,609.8-25z M613-23.5c-0.1,0-0.2,0-0.2,0.1c0,0.1,0,0.2,0.1,0.2c0.1,0,0.2,0,0.2-0.1
		C613.1-23.4,613.1-23.4,613-23.5z M608.8-18.3c-0.1,0-0.1,0-0.1,0.1c0,0.1,0,0.1,0.1,0.1c0.1,0,0.1,0,0.1-0.1
		C608.9-18.3,608.9-18.3,608.8-18.3z M610.4-23.7c0,0-0.1,0-0.1,0.1c0,0,0,0.1,0.1,0.1s0.1,0,0.1-0.1
		C610.5-23.6,610.5-23.7,610.4-23.7z M613-23.1c0,0-0.1,0-0.2,0.1c0,0,0,0.1,0.1,0.1c0,0,0.1,0,0.1-0.1
		C613.1-23,613.1-23.1,613-23.1z"/>
</g>
</svg>
