<svg xmlns="http://www.w3.org/2000/svg" width="20" height="16" viewBox="0 0 20 16">
  <text id="_Mehr_lesen" data-name="↓ Mehr lesen" transform="translate(16 16) rotate(-90)" fill="#9e4770" font-size="16" font-family="Inter-Regular, Inter" letter-spacing="0.031em"><tspan x="0" y="0">↓</tspan></text>
</svg>
