<svg id="icons_check" data-name="icons / check" xmlns="http://www.w3.org/2000/svg" width="32" height="32" viewBox="0 0 32 32">
  <g id="Oval" transform="translate(2 2)" fill="none" stroke="#9e4770" stroke-miterlimit="10" stroke-width="1">
    <circle cx="14" cy="14" r="14" stroke="none"/>
    <circle cx="14" cy="14" r="13.5" fill="none"/>
  </g>
  <path id="Stroke_2" data-name="Stroke 2" d="M16,0,6.742,9,0,2.446" transform="translate(8 11)" fill="none" stroke="#9e4770" stroke-miterlimit="10" stroke-width="1"/>
</svg>
