<svg id="CTA_slider" data-name="CTA / slider" xmlns="http://www.w3.org/2000/svg" xmlns:xlink="http://www.w3.org/1999/xlink" width="87" height="22" viewBox="0 0 87 22">
  <defs>
    <linearGradient id="linear-gradient" x1="1" y1="1" x2="0" gradientUnits="objectBoundingBox">
      <stop offset="0" stop-color="#9e4770"/>
      <stop offset="1" stop-color="#5c164e"/>
    </linearGradient>
  </defs>
  <rect id="Rectangle_Copy_10" data-name="Rectangle Copy 10" width="87" height="22" rx="3" fill="url(#linear-gradient)"/>
  <g id="Group_5" data-name="Group 5" transform="translate(36 7)">
    <path id="Line_2" data-name="Line 2" d="M.5,0V8" fill="none" stroke="#fbfaf7" stroke-miterlimit="10" stroke-width="1"/>
    <path id="Line_2_Copy" data-name="Line 2 Copy" d="M.5,0V8" transform="translate(7)" fill="none" stroke="#fbfaf7" stroke-miterlimit="10" stroke-width="1"/>
    <path id="Line_2_Copy_2" data-name="Line 2 Copy 2" d="M.5,0V8" transform="translate(14)" fill="none" stroke="#fbfaf7" stroke-miterlimit="10" stroke-width="1"/>
  </g>
</svg>
