<?xml version="1.0" encoding="utf-8"?>
<!-- Generator: Adobe Illustrator 23.1.1, SVG Export Plug-In . SVG Version: 6.00 Build 0)  -->
<svg version="1.1" id="Layer_1" xmlns="http://www.w3.org/2000/svg" xmlns:xlink="http://www.w3.org/1999/xlink" x="0px" y="0px"
	 width="33px" height="33px" viewBox="0 0 33 33" enable-background="new 0 0 33 33" xml:space="preserve">
<g>
	
		<circle fill="none" stroke="#000" stroke-width="2" stroke-linecap="round" stroke-linejoin="round" cx="16.5" cy="9.5" r="8.4"/>
	<path fill="none" stroke="#000" stroke-width="2" stroke-linecap="round" stroke-linejoin="round" d="M16.5,31.8h13.9
		c0-7.7-6.2-13.9-13.9-13.9S2.6,24.1,2.6,31.8"/>
</g>
</svg>
